EESchema Schematic File Version 2
LIBS:power
LIBS:MyKiCadLibs-Lib
LIBS:DSP-ADAU1761-MircoPCB-cache
EELAYER 25 0
EELAYER END
$Descr A4 11693 8268
encoding utf-8
Sheet 3 4
Title "ADAU145x DSP - ADAU1452, ADAU1451, ADAU1450 supported"
Date "2016-05-25"
Rev "2.0"
Comp "Open Hardware DSP Platform - www.ohdsp.org"
Comment1 "MERCHANTABILITY, SATISFACTORY QUALITY AND FITNESS FOR A PARTICULAR PURPOSE."
Comment2 "is distributed WITHOUT ANY EXPRESS OR IMPLIED WARRANTY, INCLUDING OF"
Comment3 "Licensed under the TAPR Open Hardware License (www.tapr.org/OHL). This documentation"
Comment4 "Copyright Paul Janicki 2016"
$EndDescr
$Comp
L GNDD #PWR019
U 1 1 54DA1946
P 8200 2200
F 0 "#PWR019" H 8200 1950 60  0001 C CNN
F 1 "GNDD" H 8200 2050 60  0000 C CNN
F 2 "" H 8200 2200 60  0000 C CNN
F 3 "" H 8200 2200 60  0000 C CNN
	1    8200 2200
	1    0    0    -1  
$EndComp
$Comp
L VPP #PWR020
U 1 1 54DA7586
P 8200 1500
F 0 "#PWR020" H 8200 1350 60  0001 C CNN
F 1 "VPP" H 8200 1650 60  0000 C CNN
F 2 "" H 8200 1500 60  0000 C CNN
F 3 "" H 8200 1500 60  0000 C CNN
	1    8200 1500
	1    0    0    -1  
$EndComp
$Comp
L PWR_FLAG #FLG021
U 1 1 54DB050F
P 5550 1550
F 0 "#FLG021" H 5550 1645 30  0001 C CNN
F 1 "PWR_FLAG" H 5550 1730 30  0000 C CNN
F 2 "" H 5550 1550 60  0000 C CNN
F 3 "" H 5550 1550 60  0000 C CNN
	1    5550 1550
	1    0    0    -1  
$EndComp
Text Notes 800  850  0    118  ~ 0
Power Supply
$Comp
L GNDD #PWR022
U 1 1 54E53D95
P 1350 6650
F 0 "#PWR022" H 1350 6400 60  0001 C CNN
F 1 "GNDD" H 1350 6500 60  0000 C CNN
F 2 "" H 1350 6650 60  0000 C CNN
F 3 "" H 1350 6650 60  0000 C CNN
	1    1350 6650
	1    0    0    -1  
$EndComp
$Comp
L GNDD #PWR023
U 1 1 54E5499B
P 3800 7000
F 0 "#PWR023" H 3800 6750 60  0001 C CNN
F 1 "GNDD" H 3800 6850 60  0000 C CNN
F 2 "" H 3800 7000 60  0000 C CNN
F 3 "" H 3800 7000 60  0000 C CNN
	1    3800 7000
	1    0    0    -1  
$EndComp
$Comp
L GNDD #PWR024
U 1 1 54E562EF
P 3350 7500
F 0 "#PWR024" H 3350 7250 60  0001 C CNN
F 1 "GNDD" H 3350 7350 60  0000 C CNN
F 2 "" H 3350 7500 60  0000 C CNN
F 3 "" H 3350 7500 60  0000 C CNN
	1    3350 7500
	1    0    0    -1  
$EndComp
Text Notes 850  5750 0    60   ~ 0
5V Input\n
$Comp
L LED D303
U 1 1 54E5948E
P 6250 7250
F 0 "D303" H 6250 7350 50  0000 C CNN
F 1 "Green LED 1206" H 6250 7450 50  0000 C CNN
F 2 "MyKiCadLibs-Footprints:SMD-1206" H 6250 7250 60  0001 C CNN
F 3 "" H 6250 7250 60  0000 C CNN
F 4 "1206" H 6250 7250 60  0001 C CNN "Size"
F 5 "Green LED - SMD - Vf 1.8V to 2.2V" H 6250 7250 60  0001 C CNN "Description"
	1    6250 7250
	0    1    1    0   
$EndComp
$Comp
L GNDD #PWR025
U 1 1 54E5949B
P 6250 7500
F 0 "#PWR025" H 6250 7250 60  0001 C CNN
F 1 "GNDD" H 6250 7350 60  0000 C CNN
F 2 "" H 6250 7500 60  0000 C CNN
F 3 "" H 6250 7500 60  0000 C CNN
	1    6250 7500
	1    0    0    -1  
$EndComp
Text Notes 800  5650 0    118  ~ 0
Power Input
Text Notes 800  1100 0    60   ~ 0
Two LDOs generate 3v3 and 1v2\n1v2 is generated from a 2v1 SMPS for efficiency
Text Notes 6550 1450 0    60   ~ 0
3V3 Supply
$Comp
L GNDD #PWR026
U 1 1 54DA133C
P 3700 2250
F 0 "#PWR026" H 3700 2000 60  0001 C CNN
F 1 "GNDD" H 3700 2100 60  0000 C CNN
F 2 "" H 3700 2250 60  0000 C CNN
F 3 "" H 3700 2250 60  0000 C CNN
	1    3700 2250
	1    0    0    -1  
$EndComp
$Comp
L VCOM #PWR027
U 1 1 561EA686
P 6250 6400
F 0 "#PWR027" H 6250 6250 60  0001 C CNN
F 1 "VCOM" H 6250 6550 60  0000 C CNN
F 2 "" H 6250 6400 60  0000 C CNN
F 3 "" H 6250 6400 60  0000 C CNN
	1    6250 6400
	1    0    0    -1  
$EndComp
$Comp
L MNT_HOLE MNT301
U 1 1 56E77C6A
P 900 7300
F 0 "MNT301" H 900 7400 60  0000 C CNN
F 1 "MNT_HOLE" H 900 7400 60  0001 C CNN
F 2 "MyKiCadLibs-Footprints:MNT_HOLE_3.2mm" H 900 7400 60  0001 C CNN
F 3 "" H 900 7400 60  0000 C CNN
F 4 "Mounting hole" H 900 7300 60  0001 C CNN "Description"
	1    900  7300
	1    0    0    -1  
$EndComp
Text Notes 700  7100 0    60   ~ 0
Mounting Holes and Fiducials
Wire Wire Line
	4650 2100 4650 2150
Connection ~ 6350 2150
Wire Wire Line
	6350 2150 6350 2050
Connection ~ 6350 1550
Wire Wire Line
	6350 1550 6350 1650
Connection ~ 5200 1550
Wire Wire Line
	5200 1150 5200 1550
Wire Wire Line
	5050 1150 5200 1150
Connection ~ 3550 1550
Wire Wire Line
	3550 1550 3550 1150
Wire Wire Line
	3550 1150 4650 1150
Connection ~ 4550 6400
Connection ~ 6700 2150
Connection ~ 6950 2150
Connection ~ 6950 1550
Connection ~ 6700 1550
Wire Wire Line
	6950 1550 6950 1650
Wire Wire Line
	6700 1550 6700 1650
Wire Wire Line
	6700 2150 6700 2050
Wire Wire Line
	6950 2150 6950 2050
Connection ~ 7700 2150
Connection ~ 7950 2150
Connection ~ 7950 1550
Connection ~ 7700 1550
Wire Wire Line
	7950 1550 7950 1650
Wire Wire Line
	7700 1550 7700 1650
Wire Wire Line
	7700 2150 7700 2050
Wire Wire Line
	7950 2150 7950 2050
Connection ~ 5900 1550
Wire Wire Line
	5900 1550 5900 1650
Connection ~ 7200 2150
Connection ~ 7450 2150
Connection ~ 7450 1550
Connection ~ 7200 1550
Wire Wire Line
	7450 1550 7450 1650
Wire Wire Line
	7200 1550 7200 1650
Wire Wire Line
	7200 2150 7200 2050
Wire Wire Line
	7450 2150 7450 2050
Wire Wire Line
	8200 2150 8200 2200
Wire Wire Line
	3700 1550 3700 1700
Connection ~ 3700 1550
Wire Wire Line
	5150 1550 8200 1550
Wire Wire Line
	5400 1550 5650 1550
Wire Wire Line
	3700 2100 3700 2250
Wire Wire Line
	1350 6500 1350 6650
Wire Wire Line
	2250 6400 2500 6400
Wire Wire Line
	8200 1550 8200 1500
Connection ~ 5550 1550
Wire Wire Line
	6250 6400 6250 6450
Wire Wire Line
	6250 7500 6250 7450
Wire Wire Line
	6250 6950 6250 7050
Wire Wire Line
	1350 6500 1300 6500
Wire Wire Line
	3350 7500 3350 7450
Connection ~ 3350 6400
Wire Wire Line
	3350 6950 3350 7050
Wire Wire Line
	3350 6400 3350 6450
Connection ~ 4200 6950
Wire Wire Line
	4550 6950 4550 6900
Connection ~ 3800 6950
Wire Wire Line
	4200 6950 4200 6900
Wire Wire Line
	3800 6900 3800 7000
Connection ~ 3800 6400
Wire Wire Line
	3800 6400 3800 6500
Connection ~ 4200 6400
Wire Wire Line
	4200 6400 4200 6500
Wire Wire Line
	1300 6400 1850 6400
Connection ~ 5400 2150
Connection ~ 5650 2150
Wire Wire Line
	5400 2150 5400 2050
Connection ~ 5900 2150
Wire Wire Line
	5650 2150 5650 2050
Wire Wire Line
	5900 2150 5900 2050
Connection ~ 5650 1550
Wire Wire Line
	5650 1550 5650 1650
Connection ~ 5400 1550
Wire Wire Line
	5400 1550 5400 1650
Wire Wire Line
	4650 2150 8200 2150
$Comp
L MNT_HOLE FID301
U 1 1 56E9E8FD
P 1700 7300
F 0 "FID301" H 1700 7400 60  0000 C CNN
F 1 "MNT_HOLE" H 1700 7400 60  0001 C CNN
F 2 "MyKiCadLibs-Footprints:FID-1MM-3MM" H 1700 7400 60  0001 C CNN
F 3 "" H 1700 7400 60  0000 C CNN
F 4 "Fiducial" H 1700 7300 60  0001 C CNN "Description"
	1    1700 7300
	1    0    0    -1  
$EndComp
$Comp
L CP1 C303
U 1 1 5714D6B3
P 3800 6700
F 0 "C303" H 3850 6800 50  0000 L CNN
F 1 "220u" H 3850 6600 50  0000 L CNN
F 2 "MyKiCadLibs-Footprints:CAP-TH-D6.3mmP2.5mm" H 3800 6700 60  0001 C CNN
F 3 "" H 3800 6700 60  0000 C CNN
F 4 "16V" H 3855 6515 50  0000 L CNN "Voltage"
F 5 "2.5mm pitch, 6.3mm diameter" H 3800 7000 40  0001 L CNN "Type"
F 6 "Aluminium electrolytic capacitor" H 3800 7100 40  0001 L CNN "Description"
	1    3800 6700
	1    0    0    -1  
$EndComp
$Comp
L C C301
U 1 1 57156536
P 3350 7250
F 0 "C301" H 3350 7350 40  0000 L CNN
F 1 "100p" H 3360 7165 40  0000 L CNN
F 2 "MyKiCadLibs-Footprints:SMD-0805" H 3388 7100 30  0001 C CNN
F 3 "" H 3350 7350 60  0000 C CNN
F 4 "50V" H 3415 7100 40  0000 C CNN "Voltage"
F 5 "C0G" H 3420 7025 40  0000 C CNN "Type"
F 6 "Ceramic capacitor" H 3350 7550 40  0001 L CNN "Description"
F 7 "5%" H 3750 7750 40  0001 C CNN "Tolerance"
F 8 "0805" H 3350 7250 60  0001 C CNN "Size"
	1    3350 7250
	1    0    0    -1  
$EndComp
$Comp
L CP1 C311
U 1 1 571622B7
P 5900 1850
F 0 "C311" H 5950 1950 50  0000 L CNN
F 1 "220u" H 5950 1750 50  0000 L CNN
F 2 "MyKiCadLibs-Footprints:CAP-TH-D6.3mmP2.5mm" H 5900 1850 60  0001 C CNN
F 3 "" H 5900 1850 60  0000 C CNN
F 4 "10V" H 5955 1665 50  0000 L CNN "Voltage"
F 5 "2.5mm pitch, 6.3mm diameter" H 5900 2150 40  0001 L CNN "Type"
F 6 "Low impedance aluminium electrolytic capacitor - Panasonic FC, FR or similar" H 5900 2250 40  0001 L CNN "Description"
	1    5900 1850
	1    0    0    -1  
$EndComp
$Comp
L INDUCTOR L301
U 1 1 571725F8
P 2800 6400
F 0 "L301" V 2750 6400 40  0000 C CNN
F 1 "600R@100MHz" V 2900 6400 40  0000 C CNN
F 2 "MyKiCadLibs-Footprints:SMD-0805" H 2800 6400 60  0001 C CNN
F 3 "" H 2800 6400 60  0000 C CNN
F 4 "=>1A" V 2950 6400 40  0000 C CNN "Current"
F 5 "Ferrite bead, current rating 1A or higher, 600R@100MHz" V 3000 6450 40  0001 C CNN "Description"
F 6 "0805" V 2800 6400 60  0001 C CNN "Size"
	1    2800 6400
	0    -1   -1   0   
$EndComp
$Comp
L CONN_2x1 P301
U 1 1 57182425
P 1300 6400
F 0 "P301" V 1795 6245 40  0000 C CNN
F 1 "CONN_2x1" V 1740 6360 40  0000 C CNN
F 2 "MyKiCadLibs-Footprints:CONN-2WAY-2.54mm-3.81mm-SPACING" H 1640 6290 60  0001 C CNN
F 3 "" H 1640 6290 60  0000 C CNN
F 4 "2 way screw terminal, any 2.54mm to 3.81mm pitch part" H 1550 6150 40  0001 C CNN "Description"
	1    1300 6400
	-1   0    0    -1  
$EndComp
$Comp
L C C306
U 1 1 57145274
P 4550 6700
F 0 "C306" H 4550 6800 40  0000 L CNN
F 1 "100n" H 4560 6615 40  0000 L CNN
F 2 "MyKiCadLibs-Footprints:SMD-0805" H 4588 6550 30  0001 C CNN
F 3 "" H 4550 6800 60  0000 C CNN
F 4 "50V" H 4615 6550 40  0000 C CNN "Voltage"
F 5 "X7R" H 4620 6475 40  0000 C CNN "Type"
F 6 "Ceramic capacitor" H 4550 7000 40  0001 L CNN "Description"
F 7 "10%" H 4950 7200 40  0001 C CNN "Tolerance"
F 8 "0805" H 4550 6700 60  0001 C CNN "Size"
	1    4550 6700
	1    0    0    1   
$EndComp
$Comp
L C C305
U 1 1 5714560E
P 4200 6700
F 0 "C305" H 4200 6800 40  0000 L CNN
F 1 "22u" H 4210 6615 40  0000 L CNN
F 2 "MyKiCadLibs-Footprints:SMD-0805" H 4238 6550 30  0001 C CNN
F 3 "" H 4200 6800 60  0000 C CNN
F 4 "25V" H 4265 6550 40  0000 C CNN "Voltage"
F 5 "X5R" H 4270 6475 40  0000 C CNN "Type"
F 6 "Ceramic capacitor" H 4200 7000 40  0001 L CNN "Description"
F 7 "20%" H 4600 7200 40  0001 C CNN "Tolerance"
F 8 "0805" H 4200 6700 60  0001 C CNN "Size"
	1    4200 6700
	1    0    0    1   
$EndComp
$Comp
L C C304
U 1 1 5714D57A
P 3700 1900
F 0 "C304" H 3700 2000 40  0000 L CNN
F 1 "100n" H 3710 1815 40  0000 L CNN
F 2 "MyKiCadLibs-Footprints:SMD-0805" H 3738 1750 30  0001 C CNN
F 3 "" H 3700 2000 60  0000 C CNN
F 4 "50V" H 3765 1750 40  0000 C CNN "Voltage"
F 5 "X7R" H 3770 1675 40  0000 C CNN "Type"
F 6 "Ceramic capacitor" H 3700 2200 40  0001 L CNN "Description"
F 7 "10%" H 4100 2400 40  0001 C CNN "Tolerance"
F 8 "0805" H 3700 1900 60  0001 C CNN "Size"
	1    3700 1900
	1    0    0    -1  
$EndComp
$Comp
L C C310
U 1 1 5714EFE5
P 5650 1850
F 0 "C310" H 5650 1950 40  0000 L CNN
F 1 "22u" H 5660 1765 40  0000 L CNN
F 2 "MyKiCadLibs-Footprints:SMD-0805" H 5688 1700 30  0001 C CNN
F 3 "" H 5650 1950 60  0000 C CNN
F 4 "10V" H 5715 1700 40  0000 C CNN "Voltage"
F 5 "X5R" H 5720 1625 40  0000 C CNN "Type"
F 6 "Ceramic capacitor" H 5650 2150 40  0001 L CNN "Description"
F 7 "20%" H 6050 2350 40  0001 C CNN "Tolerance"
F 8 "0805" H 5650 1850 60  0001 C CNN "Size"
	1    5650 1850
	1    0    0    -1  
$EndComp
$Comp
L C C309
U 1 1 5714EFF0
P 5400 1850
F 0 "C309" H 5400 1950 40  0000 L CNN
F 1 "100n" H 5410 1765 40  0000 L CNN
F 2 "MyKiCadLibs-Footprints:SMD-0805" H 5438 1700 30  0001 C CNN
F 3 "" H 5400 1950 60  0000 C CNN
F 4 "50V" H 5465 1700 40  0000 C CNN "Voltage"
F 5 "X7R" H 5470 1625 40  0000 C CNN "Type"
F 6 "Ceramic capacitor" H 5400 2150 40  0001 L CNN "Description"
F 7 "10%" H 5800 2350 40  0001 C CNN "Tolerance"
F 8 "0805" H 5400 1850 60  0001 C CNN "Size"
	1    5400 1850
	1    0    0    -1  
$EndComp
$Comp
L C C312
U 1 1 5714FE7B
P 6700 1850
F 0 "C312" H 6700 1950 40  0000 L CNN
F 1 "100n" H 6710 1765 40  0000 L CNN
F 2 "MyKiCadLibs-Footprints:SMD-0805" H 6738 1700 30  0001 C CNN
F 3 "" H 6700 1950 60  0000 C CNN
F 4 "50V" H 6765 1700 40  0000 C CNN "Voltage"
F 5 "X7R" H 6770 1625 40  0000 C CNN "Type"
F 6 "Ceramic capacitor" H 6700 2150 40  0001 L CNN "Description"
F 7 "10%" H 7100 2350 40  0001 C CNN "Tolerance"
F 8 "0805" H 6700 1850 60  0001 C CNN "Size"
	1    6700 1850
	1    0    0    -1  
$EndComp
$Comp
L C C313
U 1 1 5714FE86
P 6950 1850
F 0 "C313" H 6950 1950 40  0000 L CNN
F 1 "10u" H 6960 1765 40  0000 L CNN
F 2 "MyKiCadLibs-Footprints:SMD-0805" H 6988 1700 30  0001 C CNN
F 3 "" H 6950 1950 60  0000 C CNN
F 4 "10V" H 7015 1700 40  0000 C CNN "Voltage"
F 5 "X5R" H 7020 1625 40  0000 C CNN "Type"
F 6 "Ceramic capacitor" H 6950 2150 40  0001 L CNN "Description"
F 7 "20%" H 7350 2350 40  0001 C CNN "Tolerance"
F 8 "0805" H 6950 1850 60  0001 C CNN "Size"
	1    6950 1850
	1    0    0    -1  
$EndComp
$Comp
L C C314
U 1 1 57150611
P 7200 1850
F 0 "C314" H 7200 1950 40  0000 L CNN
F 1 "100n" H 7210 1765 40  0000 L CNN
F 2 "MyKiCadLibs-Footprints:SMD-0805" H 7238 1700 30  0001 C CNN
F 3 "" H 7200 1950 60  0000 C CNN
F 4 "50V" H 7265 1700 40  0000 C CNN "Voltage"
F 5 "X7R" H 7270 1625 40  0000 C CNN "Type"
F 6 "Ceramic capacitor" H 7200 2150 40  0001 L CNN "Description"
F 7 "10%" H 7600 2350 40  0001 C CNN "Tolerance"
F 8 "0805" H 7200 1850 60  0001 C CNN "Size"
	1    7200 1850
	1    0    0    -1  
$EndComp
$Comp
L C C315
U 1 1 5715061C
P 7450 1850
F 0 "C315" H 7450 1950 40  0000 L CNN
F 1 "10u" H 7460 1765 40  0000 L CNN
F 2 "MyKiCadLibs-Footprints:SMD-0805" H 7488 1700 30  0001 C CNN
F 3 "" H 7450 1950 60  0000 C CNN
F 4 "10V" H 7515 1700 40  0000 C CNN "Voltage"
F 5 "X5R" H 7520 1625 40  0000 C CNN "Type"
F 6 "Ceramic capacitor" H 7450 2150 40  0001 L CNN "Description"
F 7 "20%" H 7850 2350 40  0001 C CNN "Tolerance"
F 8 "0805" H 7450 1850 60  0001 C CNN "Size"
	1    7450 1850
	1    0    0    -1  
$EndComp
$Comp
L C C316
U 1 1 57150A49
P 7700 1850
F 0 "C316" H 7700 1950 40  0000 L CNN
F 1 "100n" H 7710 1765 40  0000 L CNN
F 2 "MyKiCadLibs-Footprints:SMD-0805" H 7738 1700 30  0001 C CNN
F 3 "" H 7700 1950 60  0000 C CNN
F 4 "50V" H 7765 1700 40  0000 C CNN "Voltage"
F 5 "X7R" H 7770 1625 40  0000 C CNN "Type"
F 6 "Ceramic capacitor" H 7700 2150 40  0001 L CNN "Description"
F 7 "10%" H 8100 2350 40  0001 C CNN "Tolerance"
F 8 "0805" H 7700 1850 60  0001 C CNN "Size"
	1    7700 1850
	1    0    0    -1  
$EndComp
$Comp
L C C317
U 1 1 57150A54
P 7950 1850
F 0 "C317" H 7950 1950 40  0000 L CNN
F 1 "10u" H 7960 1765 40  0000 L CNN
F 2 "MyKiCadLibs-Footprints:SMD-0805" H 7988 1700 30  0001 C CNN
F 3 "" H 7950 1950 60  0000 C CNN
F 4 "10V" H 8015 1700 40  0000 C CNN "Voltage"
F 5 "X5R" H 8020 1625 40  0000 C CNN "Type"
F 6 "Ceramic capacitor" H 7950 2150 40  0001 L CNN "Description"
F 7 "20%" H 8350 2350 40  0001 C CNN "Tolerance"
F 8 "0805" H 7950 1850 60  0001 C CNN "Size"
	1    7950 1850
	1    0    0    -1  
$EndComp
$Comp
L R R301
U 1 1 570E49A4
P 3350 6700
F 0 "R301" V 3270 6700 40  0000 C CNN
F 1 "47" V 3357 6701 40  0000 C CNN
F 2 "MyKiCadLibs-Footprints:SMD-0805" V 3280 6700 30  0001 C CNN
F 3 "" V 3270 6700 30  0000 C CNN
F 4 "100mW" V 3450 6700 40  0001 C CNN "Power"
F 5 "Thick or thin film resistor" V 3595 6700 40  0001 C CNN "Description"
F 6 "0805" V 3525 6700 40  0001 C CNN "Size"
F 7 "1%" V 3675 6700 40  0001 C CNN "Tolerance"
	1    3350 6700
	1    0    0    -1  
$EndComp
$Comp
L R R302
U 1 1 570E4DCF
P 6250 6700
F 0 "R302" V 6170 6700 40  0000 C CNN
F 1 "470" V 6257 6701 40  0000 C CNN
F 2 "MyKiCadLibs-Footprints:SMD-0805" V 6180 6700 30  0001 C CNN
F 3 "" V 6170 6700 30  0000 C CNN
F 4 "100mW" V 6350 6700 40  0001 C CNN "Power"
F 5 "Thick or thin film resistor" V 6495 6700 40  0001 C CNN "Description"
F 6 "0805" V 6425 6700 40  0001 C CNN "Size"
F 7 "1%" V 6575 6700 40  0001 C CNN "Tolerance"
	1    6250 6700
	1    0    0    -1  
$EndComp
$Comp
L DIODE D302
U 1 1 57190E49
P 4850 1150
F 0 "D302" H 4850 1250 40  0000 C CNN
F 1 "SS14L" H 4850 1050 40  0000 C CNN
F 2 "MyKiCadLibs-Footprints:DIODE-SOD-123" H 4850 1150 60  0001 C CNN
F 3 "" H 4850 1150 60  0000 C CNN
F 4 "SS14L 1A 40V Schottky rectifier - Sub-SMA (SOD-123)" H 4850 1150 60  0001 C CNN "Description"
	1    4850 1150
	-1   0    0    1   
$EndComp
$Comp
L DIODE D304
U 1 1 57192A46
P 6350 1850
F 0 "D304" H 6350 1950 40  0000 C CNN
F 1 "SS14L" H 6350 1750 40  0000 C CNN
F 2 "MyKiCadLibs-Footprints:DIODE-SOD-123" H 6350 1850 60  0001 C CNN
F 3 "" H 6350 1850 60  0000 C CNN
F 4 "SS14L 1A 40V Schottky rectifier - Sub-SMA (SOD-123)" H 6350 1850 60  0001 C CNN "Description"
	1    6350 1850
	0    -1   -1   0   
$EndComp
$Comp
L SCHOTTKY_DIODE D301
U 1 1 57194B07
P 2050 6400
F 0 "D301" H 2050 6500 40  0000 C CNN
F 1 "B240A" H 2050 6300 40  0000 C CNN
F 2 "MyKiCadLibs-Footprints:DIODE-SMA" H 2050 6400 60  0001 C CNN
F 3 "~" H 2050 6400 60  0000 C CNN
F 4 "B240A 2A 40V Schottky Rectifier - SMA (DO-214AC)" H 2050 6400 60  0001 C CNN "Description"
	1    2050 6400
	1    0    0    -1  
$EndComp
$Comp
L MNT_HOLE MNT303
U 1 1 5727A158
P 1300 7300
F 0 "MNT303" H 1300 7400 60  0000 C CNN
F 1 "MNT_HOLE" H 1300 7400 60  0001 C CNN
F 2 "MyKiCadLibs-Footprints:MNT_HOLE_3.2mm" H 1300 7400 60  0001 C CNN
F 3 "" H 1300 7400 60  0000 C CNN
F 4 "Mounting hole" H 1300 7300 60  0001 C CNN "Description"
	1    1300 7300
	1    0    0    -1  
$EndComp
$Comp
L MNT_HOLE MNT302
U 1 1 5727A361
P 900 7550
F 0 "MNT302" H 900 7650 60  0000 C CNN
F 1 "MNT_HOLE" H 900 7650 60  0001 C CNN
F 2 "MyKiCadLibs-Footprints:MNT_HOLE_3.2mm" H 900 7650 60  0001 C CNN
F 3 "" H 900 7650 60  0000 C CNN
F 4 "Mounting hole" H 900 7550 60  0001 C CNN "Description"
	1    900  7550
	1    0    0    -1  
$EndComp
$Comp
L MNT_HOLE MNT304
U 1 1 5727A63C
P 1300 7550
F 0 "MNT304" H 1300 7650 60  0000 C CNN
F 1 "MNT_HOLE" H 1300 7650 60  0001 C CNN
F 2 "MyKiCadLibs-Footprints:MNT_HOLE_3.2mm" H 1300 7650 60  0001 C CNN
F 3 "" H 1300 7650 60  0000 C CNN
F 4 "Mounting hole" H 1300 7550 60  0001 C CNN "Description"
	1    1300 7550
	1    0    0    -1  
$EndComp
$Comp
L MNT_HOLE FID303
U 1 1 5727AC23
P 2100 7300
F 0 "FID303" H 2100 7400 60  0000 C CNN
F 1 "MNT_HOLE" H 2100 7400 60  0001 C CNN
F 2 "MyKiCadLibs-Footprints:FID-1MM-3MM" H 2100 7400 60  0001 C CNN
F 3 "" H 2100 7400 60  0000 C CNN
F 4 "Fiducial" H 2100 7300 60  0001 C CNN "Description"
	1    2100 7300
	1    0    0    -1  
$EndComp
$Comp
L MNT_HOLE FID302
U 1 1 5727AF05
P 1700 7550
F 0 "FID302" H 1700 7650 60  0000 C CNN
F 1 "MNT_HOLE" H 1700 7650 60  0001 C CNN
F 2 "MyKiCadLibs-Footprints:FID-1MM-3MM" H 1700 7650 60  0001 C CNN
F 3 "" H 1700 7650 60  0000 C CNN
F 4 "Fiducial" H 1700 7550 60  0001 C CNN "Description"
	1    1700 7550
	1    0    0    -1  
$EndComp
$Comp
L MNT_HOLE FID304
U 1 1 5727B1E9
P 2100 7550
F 0 "FID304" H 2100 7650 60  0000 C CNN
F 1 "MNT_HOLE" H 2100 7650 60  0001 C CNN
F 2 "MyKiCadLibs-Footprints:FID-1MM-3MM" H 2100 7650 60  0001 C CNN
F 3 "" H 2100 7650 60  0000 C CNN
F 4 "Fiducial" H 2100 7550 60  0001 C CNN "Description"
	1    2100 7550
	1    0    0    -1  
$EndComp
Wire Wire Line
	3400 1550 4100 1550
$Comp
L VCOM #PWR028
U 1 1 54E9EE9E
P 3400 1500
F 0 "#PWR028" H 3400 1350 60  0001 C CNN
F 1 "VCOM" H 3400 1650 60  0000 C CNN
F 2 "" H 3400 1500 60  0000 C CNN
F 3 "" H 3400 1500 60  0000 C CNN
	1    3400 1500
	1    0    0    -1  
$EndComp
$Comp
L VCOM #PWR029
U 1 1 578DE08F
P 4900 6300
F 0 "#PWR029" H 4900 6150 60  0001 C CNN
F 1 "VCOM" H 4900 6450 60  0000 C CNN
F 2 "" H 4900 6300 60  0000 C CNN
F 3 "" H 4900 6300 60  0000 C CNN
	1    4900 6300
	1    0    0    -1  
$EndComp
Wire Wire Line
	3100 6400 4900 6400
Wire Wire Line
	3800 6950 4900 6950
$Comp
L C C307
U 1 1 578E88DA
P 4900 6700
F 0 "C307" H 4900 6800 40  0000 L CNN
F 1 "10n" H 4910 6615 40  0000 L CNN
F 2 "MyKiCadLibs-Footprints:SMD-0805" H 4938 6550 30  0001 C CNN
F 3 "" H 4900 6800 60  0000 C CNN
F 4 "50V" H 4965 6550 40  0000 C CNN "Voltage"
F 5 "X7R" H 4970 6475 40  0000 C CNN "Type"
F 6 "Ceramic capacitor" H 4900 7000 40  0001 L CNN "Description"
F 7 "10%" H 5300 7200 40  0001 C CNN "Tolerance"
F 8 "0805" H 4900 6700 60  0001 C CNN "Size"
	1    4900 6700
	1    0    0    1   
$EndComp
Wire Wire Line
	4900 6300 4900 6500
Wire Wire Line
	4550 6500 4550 6400
Wire Wire Line
	4900 6950 4900 6900
Connection ~ 4550 6950
Connection ~ 4900 6400
Wire Wire Line
	3400 1500 3400 1550
$Comp
L IC-REG-POS-TLV700 U301
U 1 1 5795D8F9
P 4100 1550
F 0 "U301" H 4350 1800 60  0000 C CNN
F 1 "TLV70033DDC" H 4600 1700 60  0000 C CNN
F 2 "MyKiCadLibs-Footprints:IC-SOT23-5" H 4100 1550 60  0001 C CNN
F 3 "" H 4100 1550 60  0000 C CNN
	1    4100 1550
	1    0    0    -1  
$EndComp
Wire Wire Line
	4100 1750 4000 1750
Wire Wire Line
	4000 1750 4000 1550
Connection ~ 4000 1550
$EndSCHEMATC
