EESchema Schematic File Version 2
LIBS:power
LIBS:MyKiCadLibs-Lib
LIBS:DSP-ADAU1761-MircoPCB-cache
EELAYER 25 0
EELAYER END
$Descr A3 16535 11693
encoding utf-8
Sheet 2 4
Title "ADAU145x DSP - ADAU1452, ADAU1451, ADAU1450 supported"
Date "2016-05-25"
Rev "2.0"
Comp "Open Hardware DSP Platform - www.ohdsp.org"
Comment1 "MERCHANTABILITY, SATISFACTORY QUALITY AND FITNESS FOR A PARTICULAR PURPOSE."
Comment2 "is distributed WITHOUT ANY EXPRESS OR IMPLIED WARRANTY, INCLUDING OF"
Comment3 "Licensed under the TAPR Open Hardware License (www.tapr.org/OHL). This documentation"
Comment4 "Copyright Paul Janicki 2016"
$EndDescr
Text HLabel 9650 5050 2    60   Input ~ 0
ADC_SDATA/GPIO1
$Comp
L VPP #PWR01
U 1 1 54DB1373
P 4900 900
F 0 "#PWR01" H 4900 750 60  0001 C CNN
F 1 "VPP" H 4900 1050 60  0000 C CNN
F 2 "" H 4900 900 60  0000 C CNN
F 3 "" H 4900 900 60  0000 C CNN
	1    4900 900 
	1    0    0    -1  
$EndComp
$Comp
L GNDD #PWR02
U 1 1 54DB1F60
P 5650 2200
F 0 "#PWR02" H 5650 1950 60  0001 C CNN
F 1 "GNDD" H 5650 2050 60  0000 C CNN
F 2 "" H 5650 2200 60  0000 C CNN
F 3 "" H 5650 2200 60  0000 C CNN
	1    5650 2200
	1    0    0    -1  
$EndComp
Text Label 7500 1050 2    60   ~ 0
IOVDD
Text Label 7900 3350 3    60   ~ 0
IOVDD
Text Label 8100 3350 3    60   ~ 0
AVDD
$Comp
L GNDD #PWR03
U 1 1 54DB589A
P 7750 6050
F 0 "#PWR03" H 7750 5800 60  0001 C CNN
F 1 "GNDD" H 7750 5900 60  0000 C CNN
F 2 "" H 7750 6050 60  0000 C CNN
F 3 "" H 7750 6050 60  0000 C CNN
	1    7750 6050
	1    0    0    -1  
$EndComp
$Comp
L GNDD #PWR04
U 1 1 54E277D2
P 1200 4600
F 0 "#PWR04" H 1200 4350 60  0001 C CNN
F 1 "GNDD" H 1200 4450 60  0000 C CNN
F 2 "" H 1200 4600 60  0000 C CNN
F 3 "" H 1200 4600 60  0000 C CNN
	1    1200 4600
	1    0    0    -1  
$EndComp
Text HLabel 9650 5150 2    60   Output ~ 0
DAC_SDATA/GPIO0
Text Notes 1200 3700 0    118  ~ 0
Slave I2C Pull-ups and Address
Text HLabel 1650 2600 0    60   BiDi ~ 0
I2C_SCL
Text HLabel 1650 2500 0    60   BiDi ~ 0
I2C_SDA
Text Notes 1200 2400 0    118  ~ 0
I2C
$Comp
L VPP #PWR05
U 1 1 54E57AC0
P 1200 4000
F 0 "#PWR05" H 1200 3850 60  0001 C CNN
F 1 "VPP" H 1200 4150 60  0000 C CNN
F 2 "" H 1200 4000 60  0000 C CNN
F 3 "" H 1200 4000 60  0000 C CNN
	1    1200 4000
	1    0    0    -1  
$EndComp
Text Notes 1200 1775 0    118  ~ 0
Slave control port
Text Notes 1200 2150 0    59   ~ 0
Used for external control and programming.\nFitting R209/R210 and removing R211-R214\nenables I2C. This will disable the slave SPI\nport P511.
$Comp
L GNDD #PWR06
U 1 1 54E3539E
P 1800 5650
F 0 "#PWR06" H 1800 5400 60  0001 C CNN
F 1 "GNDD" H 1800 5500 60  0000 C CNN
F 2 "" H 1800 5650 60  0000 C CNN
F 3 "" H 1800 5650 60  0000 C CNN
	1    1800 5650
	1    0    0    -1  
$EndComp
Text HLabel 8200 10250 2    60   Output ~ 0
MCLK
Text Notes 6650 9350 0    59   ~ 0
Audio Master Clock Output\nBuffer can be Schmitt input or not\nNC7WZ17P6X or NC7WZ16P6X or similar parts
Text Label 5500 9750 0    60   ~ 0
MCLK_ADAU
Text Label 6350 5500 0    60   ~ 0
MISO/SDA
Text Label 6350 5600 0    60   ~ 0
SCLK/SCL
Text Label 6350 5400 0    60   ~ 0
MOSI/ADDR1
Text Label 6350 5300 0    60   ~ 0
SS/ADDR0
Text Label 3350 2500 2    60   ~ 0
MISO/SDA
Text Label 3350 2600 2    60   ~ 0
SCLK/SCL
Text Label 3350 3200 2    60   ~ 0
MOSI/ADDR1
Text Label 3350 3300 2    60   ~ 0
SS/ADDR0
Text HLabel 1700 3000 0    60   Output ~ 0
SPI_MISO
Text HLabel 1700 3100 0    60   Input ~ 0
SPI_SCLK
Text HLabel 1700 3200 0    60   Input ~ 0
SPI_MOSI
Text HLabel 1700 3300 0    60   Input ~ 0
SPI_SS
Text Label 3350 3000 2    60   ~ 0
MISO/SDA
Text Label 3350 3100 2    60   ~ 0
SCLK/SCL
Text Label 3000 5450 2    60   ~ 0
MOSI/ADDR1
Text Label 3000 5550 2    60   ~ 0
SS/ADDR0
Text Notes 1200 2900 0    118  ~ 0
SPI
Text Label 2650 4650 2    60   ~ 0
MISO/SDA
Text Label 2650 4750 2    60   ~ 0
SCLK/SCL
$Comp
L GNDD #PWR07
U 1 1 56268D04
P 14950 3600
F 0 "#PWR07" H 14950 3350 60  0001 C CNN
F 1 "GNDD" H 14950 3450 60  0000 C CNN
F 2 "" H 14950 3600 60  0000 C CNN
F 3 "" H 14950 3600 60  0000 C CNN
	1    14950 3600
	1    0    0    -1  
$EndComp
$Comp
L GNDD #PWR08
U 1 1 5626D0EC
P 15200 3600
F 0 "#PWR08" H 15200 3350 60  0001 C CNN
F 1 "GNDD" H 15200 3450 60  0000 C CNN
F 2 "" H 15200 3600 60  0000 C CNN
F 3 "" H 15200 3600 60  0000 C CNN
	1    15200 3600
	1    0    0    -1  
$EndComp
$Comp
L VPP #PWR09
U 1 1 5626C44A
P 1200 5000
F 0 "#PWR09" H 1200 4850 60  0001 C CNN
F 1 "VPP" H 1200 5150 60  0000 C CNN
F 2 "" H 1200 5000 60  0000 C CNN
F 3 "" H 1200 5000 60  0000 C CNN
	1    1200 5000
	1    0    0    -1  
$EndComp
Text HLabel 8200 9750 2    60   Output ~ 0
MCLK2
Wire Wire Line
	3000 5550 2450 5550
Wire Wire Line
	3000 5450 2450 5450
Wire Wire Line
	3350 3000 2800 3000
Wire Wire Line
	3350 3100 2800 3100
Wire Wire Line
	3350 3300 2800 3300
Wire Wire Line
	3350 3200 2800 3200
Wire Wire Line
	2300 3300 1700 3300
Wire Wire Line
	1700 3200 2300 3200
Wire Wire Line
	2300 3100 1700 3100
Wire Wire Line
	1700 3000 2300 3000
Wire Wire Line
	2800 2600 3350 2600
Wire Wire Line
	3350 2500 2800 2500
Wire Wire Line
	6900 5300 6350 5300
Wire Wire Line
	6350 5400 6900 5400
Wire Wire Line
	6900 5600 6350 5600
Wire Wire Line
	6350 5500 6900 5500
Wire Wire Line
	5950 1850 5950 2150
Connection ~ 1800 5550
Wire Wire Line
	1950 5450 1800 5450
Wire Wire Line
	1800 5550 1950 5550
Wire Wire Line
	1800 5450 1800 5650
Connection ~ 1200 4100
Wire Wire Line
	1650 2600 2300 2600
Wire Wire Line
	1650 2500 2300 2500
Wire Wire Line
	1200 4000 1200 4150
Wire Wire Line
	1200 4600 1200 4550
Wire Wire Line
	1800 4750 1800 4650
Connection ~ 1800 4100
Wire Wire Line
	1800 4100 1800 4150
Wire Wire Line
	2000 4100 2000 4150
Wire Wire Line
	1200 4100 2000 4100
Wire Wire Line
	1800 4750 2650 4750
Wire Wire Line
	2000 4650 2650 4650
Wire Wire Line
	5950 1050 5950 1450
Wire Wire Line
	4900 1050 4950 1050
Wire Wire Line
	4900 900  4900 1050
Connection ~ 6300 2150
Connection ~ 5650 2150
Wire Wire Line
	6300 2150 6300 1850
Wire Wire Line
	5650 2050 5650 2200
Connection ~ 6300 1050
Connection ~ 5650 1050
Wire Wire Line
	6300 1050 6300 1450
Wire Wire Line
	5650 1600 5650 1650
Wire Wire Line
	5650 1050 5650 1100
Wire Wire Line
	6600 1050 6600 1450
Connection ~ 6600 1050
Wire Wire Line
	6600 2150 6600 1850
Connection ~ 6600 2150
Wire Wire Line
	14950 3600 14950 3300
Wire Wire Line
	15200 2900 15200 2800
Connection ~ 14950 2800
Wire Wire Line
	15200 3600 15200 3300
Wire Wire Line
	1200 5000 1200 5050
Wire Wire Line
	5450 9750 7050 9750
Wire Wire Line
	6300 10250 7050 10250
Wire Wire Line
	6600 9750 6600 10250
Connection ~ 6600 9750
Wire Wire Line
	8200 9750 8150 9750
Wire Wire Line
	8200 10250 8150 10250
Wire Wire Line
	7650 10250 7600 10250
Wire Wire Line
	7600 9750 7650 9750
$Comp
L GNDD #PWR010
U 1 1 5651FB97
P 10350 3750
F 0 "#PWR010" H 10350 3500 60  0001 C CNN
F 1 "GNDD" H 10350 3600 60  0000 C CNN
F 2 "" H 10350 3750 60  0000 C CNN
F 3 "" H 10350 3750 60  0000 C CNN
	1    10350 3750
	1    0    0    -1  
$EndComp
Wire Wire Line
	10350 3650 10350 3750
Wire Wire Line
	10350 2625 11300 2625
Wire Wire Line
	10350 2625 10350 2750
Connection ~ 10800 2625
Wire Wire Line
	10350 3700 11300 3700
Connection ~ 10350 3700
Connection ~ 10800 3700
Text Label 10350 2625 0    60   ~ 0
IOVDD
Connection ~ 11050 2625
Connection ~ 11050 3700
$Comp
L IC-LOGIC-BUF-NC7WZ17P6X U202
U 1 1 5666CC0C
P 10350 3200
F 0 "U202" V 10050 3000 60  0000 C CNN
F 1 "NC7WZ17P6X" V 10150 3225 60  0000 C CNN
F 2 "MyKiCadLibs-Footprints:IC-SC70-6" H 10450 3200 60  0001 C CNN
F 3 "" H 10450 3200 60  0000 C CNN
F 4 "UHS Dual Buffer with Schmitt Trigger Inputs" V 10350 3200 60  0001 C CNN "Description"
	1    10350 3200
	1    0    0    -1  
$EndComp
$Comp
L IC-LOGIC-BUF-NC7WZ17P6X U202
U 3 1 5666CE7E
P 7300 10250
F 0 "U202" H 7300 10550 60  0000 C CNN
F 1 "NC7WZ17P6X" H 7300 10450 60  0000 C CNN
F 2 "MyKiCadLibs-Footprints:IC-SC70-6" H 7400 10250 60  0001 C CNN
F 3 "" H 7400 10250 60  0000 C CNN
F 4 "UHS Dual Buffer with Schmitt Trigger Inputs" H 7300 10250 60  0001 C CNN "Description"
	3    7300 10250
	1    0    0    -1  
$EndComp
Wire Wire Line
	14950 2550 14950 2900
Connection ~ 5950 2150
Connection ~ 5950 1050
$Comp
L IC-LOGIC-BUF-NC7WZ17P6X U202
U 2 1 5666CD3B
P 7300 9750
F 0 "U202" H 7300 10050 60  0000 C CNN
F 1 "NC7WZ17P6X" H 7300 9950 60  0000 C CNN
F 2 "MyKiCadLibs-Footprints:IC-SC70-6" H 7400 9750 60  0001 C CNN
F 3 "" H 7400 9750 60  0000 C CNN
F 4 "UHS Dual Buffer with Schmitt Trigger Inputs" H 7300 9750 60  0001 C CNN "Description"
	2    7300 9750
	1    0    0    -1  
$EndComp
Wire Wire Line
	15200 2800 14950 2800
Wire Wire Line
	1200 5050 1950 5050
Wire Wire Line
	1800 5150 1950 5150
Wire Wire Line
	1800 5050 1800 5150
Connection ~ 1800 5050
Wire Wire Line
	3000 5050 2450 5050
Wire Wire Line
	3000 5150 2450 5150
Text Label 3000 5150 2    60   ~ 0
SS/ADDR0
Text Label 3000 5050 2    60   ~ 0
MOSI/ADDR1
Wire Wire Line
	11300 3700 11300 3400
Wire Wire Line
	11300 2625 11300 3000
Wire Wire Line
	11050 3700 11050 3400
Wire Wire Line
	10800 3400 10800 3700
Wire Wire Line
	10800 3000 10800 2625
Wire Wire Line
	11050 2625 11050 3000
$Comp
L CP1 C205
U 1 1 5711D623
P 5950 1650
F 0 "C205" H 6000 1750 50  0000 L CNN
F 1 "220u" H 6000 1550 50  0000 L CNN
F 2 "MyKiCadLibs-Footprints:CAP-TH-D6.3mmP2.5mm" H 5950 1650 60  0001 C CNN
F 3 "" H 5950 1650 60  0000 C CNN
F 4 "10V" H 6005 1465 50  0000 L CNN "Voltage"
F 5 "2.5mm pitch, 6.3mm diameter" H 5950 1950 40  0001 L CNN "Type"
F 6 "Low impedance aluminium electrolytic capacitor - Panasonic FC, FR or similar" H 5950 2050 40  0001 L CNN "Description"
	1    5950 1650
	1    0    0    -1  
$EndComp
$Comp
L INDUCTOR L201
U 1 1 5716B38F
P 5250 1050
F 0 "L201" V 5200 1050 40  0000 C CNN
F 1 "600R@100MHz" V 5350 1050 40  0000 C CNN
F 2 "MyKiCadLibs-Footprints:SMD-0805" H 5250 1050 60  0001 C CNN
F 3 "" H 5250 1050 60  0000 C CNN
F 4 "=>1A" V 5400 1050 40  0000 C CNN "Current"
F 5 "Ferrite bead, current rating 1A or higher, 600R@100MHz" V 5450 1100 40  0001 C CNN "Description"
F 6 "0805" V 5250 1050 60  0001 C CNN "Size"
	1    5250 1050
	0    -1   -1   0   
$EndComp
$Comp
L C C218
U 1 1 57112B9D
P 10800 3200
F 0 "C218" H 10800 3300 40  0000 L CNN
F 1 "1u" H 10810 3115 40  0000 L CNN
F 2 "MyKiCadLibs-Footprints:SMD-0603" H 10838 3050 30  0001 C CNN
F 3 "" H 10800 3300 60  0000 C CNN
F 4 "10V" H 10815 3045 40  0000 L CNN "Voltage"
F 5 "X7R" H 10815 2975 40  0000 L CNN "Type"
F 6 "Ceramic capacitor" H 10800 3500 40  0001 L CNN "Description"
F 7 "10%" H 10870 2835 40  0001 C CNN "Tolerance"
F 8 "0603" H 10810 2905 40  0000 L CNN "Size"
	1    10800 3200
	1    0    0    -1  
$EndComp
$Comp
L C C219
U 1 1 57112BA8
P 11050 3200
F 0 "C219" H 11050 3300 40  0000 L CNN
F 1 "100n" H 11060 3115 40  0000 L CNN
F 2 "MyKiCadLibs-Footprints:SMD-0603" H 11088 3050 30  0001 C CNN
F 3 "" H 11050 3300 60  0000 C CNN
F 4 "50V" H 11065 3045 40  0000 L CNN "Voltage"
F 5 "X7R" H 11065 2975 40  0000 L CNN "Type"
F 6 "Ceramic capacitor" H 11050 3500 40  0001 L CNN "Description"
F 7 "10%" H 11120 2835 40  0001 C CNN "Tolerance"
F 8 "0603" H 11060 2905 40  0000 L CNN "Size"
	1    11050 3200
	1    0    0    -1  
$EndComp
$Comp
L C C220
U 1 1 57112BB3
P 11300 3200
F 0 "C220" H 11300 3300 40  0000 L CNN
F 1 "10n" H 11310 3115 40  0000 L CNN
F 2 "MyKiCadLibs-Footprints:SMD-0603" H 11338 3050 30  0001 C CNN
F 3 "" H 11300 3300 60  0000 C CNN
F 4 "50V" H 11315 3045 40  0000 L CNN "Voltage"
F 5 "X7R" H 11315 2975 40  0000 L CNN "Type"
F 6 "Ceramic capacitor" H 11300 3500 40  0001 L CNN "Description"
F 7 "10%" H 11370 2835 40  0001 C CNN "Tolerance"
F 8 "0603" H 11310 2905 40  0000 L CNN "Size"
	1    11300 3200
	1    0    0    -1  
$EndComp
$Comp
L C C206
U 1 1 5711F306
P 6300 1650
F 0 "C206" H 6300 1750 40  0000 L CNN
F 1 "22u" H 6310 1565 40  0000 L CNN
F 2 "MyKiCadLibs-Footprints:SMD-0805" H 6338 1500 30  0001 C CNN
F 3 "" H 6300 1750 60  0000 C CNN
F 4 "10V" H 6365 1500 40  0000 C CNN "Voltage"
F 5 "X5R" H 6370 1425 40  0000 C CNN "Type"
F 6 "Ceramic capacitor" H 6300 1950 40  0001 L CNN "Description"
F 7 "20%" H 6700 2150 40  0001 C CNN "Tolerance"
F 8 "0805" H 6300 1650 60  0001 C CNN "Size"
	1    6300 1650
	1    0    0    -1  
$EndComp
$Comp
L C C207
U 1 1 5711F894
P 6600 1650
F 0 "C207" H 6600 1750 40  0000 L CNN
F 1 "100n" H 6610 1565 40  0000 L CNN
F 2 "MyKiCadLibs-Footprints:SMD-0805" H 6638 1500 30  0001 C CNN
F 3 "" H 6600 1750 60  0000 C CNN
F 4 "50V" H 6665 1500 40  0000 C CNN "Voltage"
F 5 "X7R" H 6670 1425 40  0000 C CNN "Type"
F 6 "Ceramic capacitor" H 6600 1950 40  0001 L CNN "Description"
F 7 "10%" H 7000 2150 40  0001 C CNN "Tolerance"
F 8 "0805" H 6600 1650 60  0001 C CNN "Size"
	1    6600 1650
	1    0    0    -1  
$EndComp
$Comp
L C C222
U 1 1 57121C30
P 15200 3100
F 0 "C222" H 15200 3200 40  0000 L CNN
F 1 "10u" H 15210 3015 40  0000 L CNN
F 2 "MyKiCadLibs-Footprints:SMD-0805" H 15238 2950 30  0001 C CNN
F 3 "" H 15200 3200 60  0000 C CNN
F 4 "10V" H 15265 2950 40  0000 C CNN "Voltage"
F 5 "X5R" H 15270 2875 40  0000 C CNN "Type"
F 6 "Ceramic capacitor" H 15200 3400 40  0001 L CNN "Description"
F 7 "20%" H 15600 3600 40  0001 C CNN "Tolerance"
F 8 "0805" H 15200 3100 60  0001 C CNN "Size"
	1    15200 3100
	1    0    0    -1  
$EndComp
$Comp
L C C221
U 1 1 571221D0
P 14950 3100
F 0 "C221" H 14950 3200 40  0000 L CNN
F 1 "100n" H 14960 3015 40  0000 L CNN
F 2 "MyKiCadLibs-Footprints:SMD-0805" H 14988 2950 30  0001 C CNN
F 3 "" H 14950 3200 60  0000 C CNN
F 4 "50V" H 15015 2950 40  0000 C CNN "Voltage"
F 5 "X7R" H 15020 2875 40  0000 C CNN "Type"
F 6 "Ceramic capacitor" H 14950 3400 40  0001 L CNN "Description"
F 7 "10%" H 15350 3600 40  0001 C CNN "Tolerance"
F 8 "0805" H 14950 3100 60  0001 C CNN "Size"
	1    14950 3100
	1    0    0    -1  
$EndComp
$Comp
L C C201
U 1 1 5712F6EF
P 1200 4350
F 0 "C201" H 1200 4450 40  0000 L CNN
F 1 "100n" H 1210 4265 40  0000 L CNN
F 2 "MyKiCadLibs-Footprints:SMD-0805" H 1238 4200 30  0001 C CNN
F 3 "" H 1200 4450 60  0000 C CNN
F 4 "50V" H 1265 4200 40  0000 C CNN "Voltage"
F 5 "X7R" H 1270 4125 40  0000 C CNN "Type"
F 6 "Ceramic capacitor" H 1200 4650 40  0001 L CNN "Description"
F 7 "10%" H 1600 4850 40  0001 C CNN "Tolerance"
F 8 "0805" H 1200 4350 60  0001 C CNN "Size"
	1    1200 4350
	1    0    0    -1  
$EndComp
$Comp
L C C204
U 1 1 571526C6
P 5650 1850
F 0 "C204" H 5650 1950 40  0000 L CNN
F 1 "100p" H 5660 1765 40  0000 L CNN
F 2 "MyKiCadLibs-Footprints:SMD-0805" H 5688 1700 30  0001 C CNN
F 3 "" H 5650 1950 60  0000 C CNN
F 4 "50V" H 5715 1700 40  0000 C CNN "Voltage"
F 5 "C0G" H 5720 1625 40  0000 C CNN "Type"
F 6 "Ceramic capacitor" H 5650 2150 40  0001 L CNN "Description"
F 7 "5%" H 6050 2350 40  0001 C CNN "Tolerance"
F 8 "0805" H 5650 1850 60  0001 C CNN "Size"
	1    5650 1850
	1    0    0    -1  
$EndComp
$Comp
L R R215
U 1 1 570D9F7F
P 5650 1350
F 0 "R215" V 5570 1350 40  0000 C CNN
F 1 "47" V 5657 1351 40  0000 C CNN
F 2 "MyKiCadLibs-Footprints:SMD-0805" V 5580 1350 30  0001 C CNN
F 3 "" V 5570 1350 30  0000 C CNN
F 4 "100mW" V 5750 1350 40  0001 C CNN "Power"
F 5 "Thick or thin film resistor" V 5895 1350 40  0001 C CNN "Description"
F 6 "0805" V 5825 1350 40  0001 C CNN "Size"
F 7 "1%" V 5975 1350 40  0001 C CNN "Tolerance"
	1    5650 1350
	1    0    0    -1  
$EndComp
$Comp
L R R207
U 1 1 570E5323
P 2550 2500
F 0 "R207" V 2500 2800 40  0000 C CNN
F 1 "N/F" V 2557 2501 40  0000 C CNN
F 2 "MyKiCadLibs-Footprints:SMD-0805" V 2480 2500 30  0001 C CNN
F 3 "" V 2470 2500 30  0000 C CNN
F 4 "100mW" V 2650 2500 40  0001 C CNN "Power"
F 5 "Thick or thin film resistor" V 2795 2500 40  0001 C CNN "Description"
F 6 "0805" V 2725 2500 40  0001 C CNN "Size"
F 7 "1%" V 2875 2500 40  0001 C CNN "Tolerance"
	1    2550 2500
	0    -1   1    0   
$EndComp
$Comp
L R R208
U 1 1 570E630D
P 2550 2600
F 0 "R208" V 2500 2900 40  0000 C CNN
F 1 "N/F" V 2557 2601 40  0000 C CNN
F 2 "MyKiCadLibs-Footprints:SMD-0805" V 2480 2600 30  0001 C CNN
F 3 "" V 2470 2600 30  0000 C CNN
F 4 "100mW" V 2650 2600 40  0001 C CNN "Power"
F 5 "Thick or thin film resistor" V 2795 2600 40  0001 C CNN "Description"
F 6 "0805" V 2725 2600 40  0001 C CNN "Size"
F 7 "1%" V 2875 2600 40  0001 C CNN "Tolerance"
	1    2550 2600
	0    -1   1    0   
$EndComp
$Comp
L R R209
U 1 1 570E6852
P 2550 3000
F 0 "R209" V 2500 3300 40  0000 C CNN
F 1 "75" V 2557 3001 40  0000 C CNN
F 2 "MyKiCadLibs-Footprints:SMD-0805" V 2480 3000 30  0001 C CNN
F 3 "" V 2470 3000 30  0000 C CNN
F 4 "100mW" V 2650 3000 40  0001 C CNN "Power"
F 5 "Thick or thin film resistor" V 2795 3000 40  0001 C CNN "Description"
F 6 "0805" V 2725 3000 40  0001 C CNN "Size"
F 7 "1%" V 2875 3000 40  0001 C CNN "Tolerance"
	1    2550 3000
	0    -1   1    0   
$EndComp
$Comp
L R R210
U 1 1 570E6DA0
P 2550 3100
F 0 "R210" V 2500 3400 40  0000 C CNN
F 1 "0" V 2557 3101 40  0000 C CNN
F 2 "MyKiCadLibs-Footprints:SMD-0805" V 2480 3100 30  0001 C CNN
F 3 "" V 2470 3100 30  0000 C CNN
F 4 "100mW" V 2650 3100 40  0001 C CNN "Power"
F 5 "Thick or thin film resistor" V 2795 3100 40  0001 C CNN "Description"
F 6 "0805" V 2725 3100 40  0001 C CNN "Size"
F 7 "1%" V 2875 3100 40  0001 C CNN "Tolerance"
	1    2550 3100
	0    -1   1    0   
$EndComp
$Comp
L R R211
U 1 1 570E730C
P 2550 3200
F 0 "R211" V 2500 3500 40  0000 C CNN
F 1 "0" V 2557 3201 40  0000 C CNN
F 2 "MyKiCadLibs-Footprints:SMD-0805" V 2480 3200 30  0001 C CNN
F 3 "" V 2470 3200 30  0000 C CNN
F 4 "100mW" V 2650 3200 40  0001 C CNN "Power"
F 5 "Thick or thin film resistor" V 2795 3200 40  0001 C CNN "Description"
F 6 "0805" V 2725 3200 40  0001 C CNN "Size"
F 7 "1%" V 2875 3200 40  0001 C CNN "Tolerance"
	1    2550 3200
	0    -1   1    0   
$EndComp
$Comp
L R R212
U 1 1 570E7A65
P 2550 3300
F 0 "R212" V 2500 3600 40  0000 C CNN
F 1 "0" V 2557 3301 40  0000 C CNN
F 2 "MyKiCadLibs-Footprints:SMD-0805" V 2480 3300 30  0001 C CNN
F 3 "" V 2470 3300 30  0000 C CNN
F 4 "100mW" V 2650 3300 40  0001 C CNN "Power"
F 5 "Thick or thin film resistor" V 2795 3300 40  0001 C CNN "Description"
F 6 "0805" V 2725 3300 40  0001 C CNN "Size"
F 7 "1%" V 2875 3300 40  0001 C CNN "Tolerance"
	1    2550 3300
	0    -1   1    0   
$EndComp
$Comp
L R R201
U 1 1 570EAF09
P 1800 4400
F 0 "R201" V 1900 4400 40  0000 C CNN
F 1 "N/F" V 1807 4401 40  0000 C CNN
F 2 "MyKiCadLibs-Footprints:SMD-0805" V 1730 4400 30  0001 C CNN
F 3 "" V 1720 4400 30  0000 C CNN
F 4 "100mW" V 1900 4400 40  0001 C CNN "Power"
F 5 "Thick or thin film resistor" V 2045 4400 40  0001 C CNN "Description"
F 6 "0805" V 1975 4400 40  0001 C CNN "Size"
F 7 "1%" V 2125 4400 40  0001 C CNN "Tolerance"
	1    1800 4400
	-1   0    0    -1  
$EndComp
$Comp
L R R202
U 1 1 570EB851
P 2000 4400
F 0 "R202" V 2100 4400 40  0000 C CNN
F 1 "N/F" V 2007 4401 40  0000 C CNN
F 2 "MyKiCadLibs-Footprints:SMD-0805" V 1930 4400 30  0001 C CNN
F 3 "" V 1920 4400 30  0000 C CNN
F 4 "100mW" V 2100 4400 40  0001 C CNN "Power"
F 5 "Thick or thin film resistor" V 2245 4400 40  0001 C CNN "Description"
F 6 "0805" V 2175 4400 40  0001 C CNN "Size"
F 7 "1%" V 2325 4400 40  0001 C CNN "Tolerance"
	1    2000 4400
	-1   0    0    -1  
$EndComp
$Comp
L R R203
U 1 1 570ECFF6
P 2200 5050
F 0 "R203" V 2150 5350 40  0000 C CNN
F 1 "N/F" V 2207 5051 40  0000 C CNN
F 2 "MyKiCadLibs-Footprints:SMD-0805" V 2130 5050 30  0001 C CNN
F 3 "" V 2120 5050 30  0000 C CNN
F 4 "100mW" V 2300 5050 40  0001 C CNN "Power"
F 5 "Thick or thin film resistor" V 2445 5050 40  0001 C CNN "Description"
F 6 "0805" V 2375 5050 40  0001 C CNN "Size"
F 7 "1%" V 2525 5050 40  0001 C CNN "Tolerance"
	1    2200 5050
	0    -1   1    0   
$EndComp
$Comp
L R R204
U 1 1 570EDD17
P 2200 5150
F 0 "R204" V 2150 5450 40  0000 C CNN
F 1 "N/F" V 2207 5151 40  0000 C CNN
F 2 "MyKiCadLibs-Footprints:SMD-0805" V 2130 5150 30  0001 C CNN
F 3 "" V 2120 5150 30  0000 C CNN
F 4 "100mW" V 2300 5150 40  0001 C CNN "Power"
F 5 "Thick or thin film resistor" V 2445 5150 40  0001 C CNN "Description"
F 6 "0805" V 2375 5150 40  0001 C CNN "Size"
F 7 "1%" V 2525 5150 40  0001 C CNN "Tolerance"
	1    2200 5150
	0    -1   1    0   
$EndComp
$Comp
L R R205
U 1 1 570EDFB8
P 2200 5450
F 0 "R205" V 2150 5750 40  0000 C CNN
F 1 "N/F" V 2207 5451 40  0000 C CNN
F 2 "MyKiCadLibs-Footprints:SMD-0805" V 2130 5450 30  0001 C CNN
F 3 "" V 2120 5450 30  0000 C CNN
F 4 "100mW" V 2300 5450 40  0001 C CNN "Power"
F 5 "Thick or thin film resistor" V 2445 5450 40  0001 C CNN "Description"
F 6 "0805" V 2375 5450 40  0001 C CNN "Size"
F 7 "1%" V 2525 5450 40  0001 C CNN "Tolerance"
	1    2200 5450
	0    -1   1    0   
$EndComp
$Comp
L R R206
U 1 1 570EE4F0
P 2200 5550
F 0 "R206" V 2150 5850 40  0000 C CNN
F 1 "N/F" V 2207 5551 40  0000 C CNN
F 2 "MyKiCadLibs-Footprints:SMD-0805" V 2130 5550 30  0001 C CNN
F 3 "" V 2120 5550 30  0000 C CNN
F 4 "100mW" V 2300 5550 40  0001 C CNN "Power"
F 5 "Thick or thin film resistor" V 2445 5550 40  0001 C CNN "Description"
F 6 "0805" V 2375 5550 40  0001 C CNN "Size"
F 7 "1%" V 2525 5550 40  0001 C CNN "Tolerance"
	1    2200 5550
	0    -1   1    0   
$EndComp
$Comp
L R R214
U 1 1 57107BEB
P 5200 9750
F 0 "R214" V 5100 9750 40  0000 C CNN
F 1 "75" V 5207 9751 40  0000 C CNN
F 2 "MyKiCadLibs-Footprints:SMD-0805" V 5130 9750 30  0001 C CNN
F 3 "" V 5120 9750 30  0000 C CNN
F 4 "100mW" V 5300 9750 40  0001 C CNN "Power"
F 5 "Thick or thin film resistor" V 5445 9750 40  0001 C CNN "Description"
F 6 "0805" V 5375 9750 40  0001 C CNN "Size"
F 7 "1%" V 5525 9750 40  0001 C CNN "Tolerance"
	1    5200 9750
	0    1    -1   0   
$EndComp
$Comp
L R R217
U 1 1 57108393
P 7900 9750
F 0 "R217" V 7800 9750 40  0000 C CNN
F 1 "75" V 7907 9751 40  0000 C CNN
F 2 "MyKiCadLibs-Footprints:SMD-0805" V 7830 9750 30  0001 C CNN
F 3 "" V 7820 9750 30  0000 C CNN
F 4 "100mW" V 8000 9750 40  0001 C CNN "Power"
F 5 "Thick or thin film resistor" V 8145 9750 40  0001 C CNN "Description"
F 6 "0805" V 8075 9750 40  0001 C CNN "Size"
F 7 "1%" V 8225 9750 40  0001 C CNN "Tolerance"
	1    7900 9750
	0    1    -1   0   
$EndComp
$Comp
L R R218
U 1 1 571088FA
P 7900 10250
F 0 "R218" V 7800 10250 40  0000 C CNN
F 1 "75" V 7907 10251 40  0000 C CNN
F 2 "MyKiCadLibs-Footprints:SMD-0805" V 7830 10250 30  0001 C CNN
F 3 "" V 7820 10250 30  0000 C CNN
F 4 "100mW" V 8000 10250 40  0001 C CNN "Power"
F 5 "Thick or thin film resistor" V 8145 10250 40  0001 C CNN "Description"
F 6 "0805" V 8075 10250 40  0001 C CNN "Size"
F 7 "1%" V 8225 10250 40  0001 C CNN "Tolerance"
	1    7900 10250
	0    1    -1   0   
$EndComp
Text Notes 750  750  0    118  ~ 0
ADAU1452 (ADAU1451/ADAU1450)
$Comp
L R R220
U 1 1 5789BDB7
P 9300 5050
F 0 "R220" V 9250 5350 40  0000 C CNN
F 1 "75" V 9307 5051 40  0000 C CNN
F 2 "MyKiCadLibs-Footprints:SMD-0805" V 9230 5050 30  0001 C CNN
F 3 "" V 9220 5050 30  0000 C CNN
F 4 "100mW" V 9400 5050 40  0001 C CNN "Power"
F 5 "Thick or thin film resistor" V 9545 5050 40  0001 C CNN "Description"
F 6 "0805" V 9475 5050 40  0001 C CNN "Size"
F 7 "1%" V 9625 5050 40  0001 C CNN "Tolerance"
	1    9300 5050
	0    -1   1    0   
$EndComp
$Comp
L R R221
U 1 1 5789C188
P 9300 5150
F 0 "R221" V 9250 5450 40  0000 C CNN
F 1 "75" V 9307 5151 40  0000 C CNN
F 2 "MyKiCadLibs-Footprints:SMD-0805" V 9230 5150 30  0001 C CNN
F 3 "" V 9220 5150 30  0000 C CNN
F 4 "100mW" V 9400 5150 40  0001 C CNN "Power"
F 5 "Thick or thin film resistor" V 9545 5150 40  0001 C CNN "Description"
F 6 "0805" V 9475 5150 40  0001 C CNN "Size"
F 7 "1%" V 9625 5150 40  0001 C CNN "Tolerance"
	1    9300 5150
	0    -1   1    0   
$EndComp
$Comp
L R R222
U 1 1 5789C4D6
P 9300 5250
F 0 "R222" V 9250 5550 40  0000 C CNN
F 1 "75" V 9307 5251 40  0000 C CNN
F 2 "MyKiCadLibs-Footprints:SMD-0805" V 9230 5250 30  0001 C CNN
F 3 "" V 9220 5250 30  0000 C CNN
F 4 "100mW" V 9400 5250 40  0001 C CNN "Power"
F 5 "Thick or thin film resistor" V 9545 5250 40  0001 C CNN "Description"
F 6 "0805" V 9475 5250 40  0001 C CNN "Size"
F 7 "1%" V 9625 5250 40  0001 C CNN "Tolerance"
	1    9300 5250
	0    -1   1    0   
$EndComp
$Comp
L R R223
U 1 1 5789C4E0
P 9300 5350
F 0 "R223" V 9250 5650 40  0000 C CNN
F 1 "75" V 9307 5351 40  0000 C CNN
F 2 "MyKiCadLibs-Footprints:SMD-0805" V 9230 5350 30  0001 C CNN
F 3 "" V 9220 5350 30  0000 C CNN
F 4 "100mW" V 9400 5350 40  0001 C CNN "Power"
F 5 "Thick or thin film resistor" V 9545 5350 40  0001 C CNN "Description"
F 6 "0805" V 9475 5350 40  0001 C CNN "Size"
F 7 "1%" V 9625 5350 40  0001 C CNN "Tolerance"
	1    9300 5350
	0    -1   1    0   
$EndComp
Wire Wire Line
	9550 5250 11050 5250
Wire Wire Line
	9550 5350 10850 5350
Wire Wire Line
	9050 5350 8900 5350
Wire Wire Line
	8900 5250 9050 5250
Wire Wire Line
	9050 5150 8900 5150
Wire Wire Line
	8900 5050 9050 5050
Wire Wire Line
	7750 5950 7750 6050
Wire Wire Line
	7850 5950 7850 6000
Wire Wire Line
	7750 6000 8150 6000
Connection ~ 7750 6000
Wire Wire Line
	8050 6000 8050 5950
Connection ~ 7850 6000
Wire Wire Line
	8150 6000 8150 5950
Connection ~ 8050 6000
$Comp
L IC-DSP-ADAU1761BCPZ U201
U 1 1 57899F5A
P 6900 4050
F 0 "U201" H 7150 4200 60  0000 C CNN
F 1 "IC-DSP-ADAU1761BCPZ" H 7900 3600 60  0000 C CNN
F 2 "MyKiCadLibs-Footprints:IC-LFCSP32" H 6900 4300 60  0001 C CNN
F 3 "" H 6900 4300 60  0000 C CNN
	1    6900 4050
	1    0    0    -1  
$EndComp
Wire Wire Line
	7900 3350 7900 3750
Wire Wire Line
	8100 3350 8100 3750
Wire Wire Line
	8100 3650 8200 3650
Wire Wire Line
	8200 3650 8200 3750
Connection ~ 8100 3650
$Comp
L VPP #PWR011
U 1 1 578CFE72
P 7850 900
F 0 "#PWR011" H 7850 750 60  0001 C CNN
F 1 "VPP" H 7850 1050 60  0000 C CNN
F 2 "" H 7850 900 60  0000 C CNN
F 3 "" H 7850 900 60  0000 C CNN
	1    7850 900 
	1    0    0    -1  
$EndComp
$Comp
L GNDD #PWR012
U 1 1 578CFE78
P 8600 2200
F 0 "#PWR012" H 8600 1950 60  0001 C CNN
F 1 "GNDD" H 8600 2050 60  0000 C CNN
F 2 "" H 8600 2200 60  0000 C CNN
F 3 "" H 8600 2200 60  0000 C CNN
	1    8600 2200
	1    0    0    -1  
$EndComp
Wire Wire Line
	8900 1850 8900 2150
Wire Wire Line
	8900 1050 8900 1450
Wire Wire Line
	10450 1050 10450 1450
Wire Wire Line
	10450 2150 10450 1850
Wire Wire Line
	7850 1050 7900 1050
Wire Wire Line
	7850 900  7850 1050
Connection ~ 10150 1050
Connection ~ 9900 1050
Wire Wire Line
	10150 1050 10150 1450
Wire Wire Line
	9900 1050 9900 1450
Connection ~ 10150 2150
Connection ~ 9900 2150
Wire Wire Line
	10150 2150 10150 1850
Wire Wire Line
	9900 2150 9900 1850
Connection ~ 9250 2150
Connection ~ 8600 2150
Wire Wire Line
	9250 2150 9250 1850
Wire Wire Line
	8600 2050 8600 2200
Connection ~ 9250 1050
Connection ~ 8600 1050
Wire Wire Line
	9250 1050 9250 1450
Wire Wire Line
	8600 1600 8600 1650
Wire Wire Line
	8600 1050 8600 1100
Wire Wire Line
	9550 1050 9550 1450
Connection ~ 9550 1050
Wire Wire Line
	9550 2150 9550 1850
Connection ~ 9550 2150
Connection ~ 8900 2150
Connection ~ 8900 1050
$Comp
L CP1 C212
U 1 1 578CFEA0
P 8900 1650
F 0 "C212" H 8950 1750 50  0000 L CNN
F 1 "220u" H 8950 1550 50  0000 L CNN
F 2 "MyKiCadLibs-Footprints:CAP-TH-D6.3mmP2.5mm" H 8900 1650 60  0001 C CNN
F 3 "" H 8900 1650 60  0000 C CNN
F 4 "10V" H 8955 1465 50  0000 L CNN "Voltage"
F 5 "2.5mm pitch, 6.3mm diameter" H 8900 1950 40  0001 L CNN "Type"
F 6 "Low impedance aluminium electrolytic capacitor - Panasonic FC, FR or similar" H 8900 2050 40  0001 L CNN "Description"
	1    8900 1650
	1    0    0    -1  
$EndComp
$Comp
L INDUCTOR L202
U 1 1 578CFEA9
P 8200 1050
F 0 "L202" V 8150 1050 40  0000 C CNN
F 1 "600R@100MHz" V 8300 1050 40  0000 C CNN
F 2 "MyKiCadLibs-Footprints:SMD-0805" H 8200 1050 60  0001 C CNN
F 3 "" H 8200 1050 60  0000 C CNN
F 4 "=>1A" V 8350 1050 40  0000 C CNN "Current"
F 5 "Ferrite bead, current rating 1A or higher, 600R@100MHz" V 8400 1100 40  0001 C CNN "Description"
F 6 "0805" V 8200 1050 60  0001 C CNN "Size"
	1    8200 1050
	0    -1   -1   0   
$EndComp
$Comp
L C C215
U 1 1 578CFEB4
P 9900 1650
F 0 "C215" H 9900 1750 40  0000 L CNN
F 1 "1u" H 9910 1565 40  0000 L CNN
F 2 "MyKiCadLibs-Footprints:SMD-0603" H 9938 1500 30  0001 C CNN
F 3 "" H 9900 1750 60  0000 C CNN
F 4 "10V" H 9915 1495 40  0000 L CNN "Voltage"
F 5 "X7R" H 9915 1425 40  0000 L CNN "Type"
F 6 "Ceramic capacitor" H 9900 1950 40  0001 L CNN "Description"
F 7 "10%" H 9970 1285 40  0001 C CNN "Tolerance"
F 8 "0603" H 9910 1355 40  0000 L CNN "Size"
	1    9900 1650
	1    0    0    -1  
$EndComp
$Comp
L C C216
U 1 1 578CFEBF
P 10150 1650
F 0 "C216" H 10150 1750 40  0000 L CNN
F 1 "100n" H 10160 1565 40  0000 L CNN
F 2 "MyKiCadLibs-Footprints:SMD-0603" H 10188 1500 30  0001 C CNN
F 3 "" H 10150 1750 60  0000 C CNN
F 4 "50V" H 10165 1495 40  0000 L CNN "Voltage"
F 5 "X7R" H 10165 1425 40  0000 L CNN "Type"
F 6 "Ceramic capacitor" H 10150 1950 40  0001 L CNN "Description"
F 7 "10%" H 10220 1285 40  0001 C CNN "Tolerance"
F 8 "0603" H 10160 1355 40  0000 L CNN "Size"
	1    10150 1650
	1    0    0    -1  
$EndComp
$Comp
L C C217
U 1 1 578CFECA
P 10450 1650
F 0 "C217" H 10450 1750 40  0000 L CNN
F 1 "10n" H 10460 1565 40  0000 L CNN
F 2 "MyKiCadLibs-Footprints:SMD-0603" H 10488 1500 30  0001 C CNN
F 3 "" H 10450 1750 60  0000 C CNN
F 4 "10V" H 10465 1495 40  0000 L CNN "Voltage"
F 5 "X7R" H 10465 1425 40  0000 L CNN "Type"
F 6 "Ceramic capacitor" H 10450 1950 40  0001 L CNN "Description"
F 7 "10%" H 10520 1285 40  0001 C CNN "Tolerance"
F 8 "0603" H 10460 1355 40  0000 L CNN "Size"
	1    10450 1650
	1    0    0    -1  
$EndComp
$Comp
L C C213
U 1 1 578CFED5
P 9250 1650
F 0 "C213" H 9250 1750 40  0000 L CNN
F 1 "22u" H 9260 1565 40  0000 L CNN
F 2 "MyKiCadLibs-Footprints:SMD-0805" H 9288 1500 30  0001 C CNN
F 3 "" H 9250 1750 60  0000 C CNN
F 4 "10V" H 9315 1500 40  0000 C CNN "Voltage"
F 5 "X5R" H 9320 1425 40  0000 C CNN "Type"
F 6 "Ceramic capacitor" H 9250 1950 40  0001 L CNN "Description"
F 7 "20%" H 9650 2150 40  0001 C CNN "Tolerance"
F 8 "0805" H 9250 1650 60  0001 C CNN "Size"
	1    9250 1650
	1    0    0    -1  
$EndComp
$Comp
L C C214
U 1 1 578CFEE0
P 9550 1650
F 0 "C214" H 9550 1750 40  0000 L CNN
F 1 "100n" H 9560 1565 40  0000 L CNN
F 2 "MyKiCadLibs-Footprints:SMD-0805" H 9588 1500 30  0001 C CNN
F 3 "" H 9550 1750 60  0000 C CNN
F 4 "50V" H 9615 1500 40  0000 C CNN "Voltage"
F 5 "X7R" H 9620 1425 40  0000 C CNN "Type"
F 6 "Ceramic capacitor" H 9550 1950 40  0001 L CNN "Description"
F 7 "10%" H 9950 2150 40  0001 C CNN "Tolerance"
F 8 "0805" H 9550 1650 60  0001 C CNN "Size"
	1    9550 1650
	1    0    0    -1  
$EndComp
$Comp
L C C211
U 1 1 578CFEEB
P 8600 1850
F 0 "C211" H 8600 1950 40  0000 L CNN
F 1 "100p" H 8610 1765 40  0000 L CNN
F 2 "MyKiCadLibs-Footprints:SMD-0805" H 8638 1700 30  0001 C CNN
F 3 "" H 8600 1950 60  0000 C CNN
F 4 "50V" H 8665 1700 40  0000 C CNN "Voltage"
F 5 "C0G" H 8670 1625 40  0000 C CNN "Type"
F 6 "Ceramic capacitor" H 8600 2150 40  0001 L CNN "Description"
F 7 "5%" H 9000 2350 40  0001 C CNN "Tolerance"
F 8 "0805" H 8600 1850 60  0001 C CNN "Size"
	1    8600 1850
	1    0    0    -1  
$EndComp
$Comp
L R R219
U 1 1 578CFEF5
P 8600 1350
F 0 "R219" V 8520 1350 40  0000 C CNN
F 1 "47" V 8607 1351 40  0000 C CNN
F 2 "MyKiCadLibs-Footprints:SMD-0805" V 8530 1350 30  0001 C CNN
F 3 "" V 8520 1350 30  0000 C CNN
F 4 "100mW" V 8700 1350 40  0001 C CNN "Power"
F 5 "Thick or thin film resistor" V 8845 1350 40  0001 C CNN "Description"
F 6 "0805" V 8775 1350 40  0001 C CNN "Size"
F 7 "1%" V 8925 1350 40  0001 C CNN "Tolerance"
	1    8600 1350
	1    0    0    -1  
$EndComp
Wire Wire Line
	8500 1050 10450 1050
Wire Wire Line
	8600 2150 10450 2150
Text Label 10450 1050 2    60   ~ 0
AVDD
$Comp
L XTAL-OSC-4PIN XTAL201
U 1 1 578D0ADF
P 3950 9750
F 0 "XTAL201" H 4400 10000 60  0000 C CNN
F 1 "24M000" H 4400 9900 60  0000 C CNN
F 2 "MyKiCadLibs-Footprints:XTAL_5x3.2_4PIN" H 3950 9750 60  0001 C CNN
F 3 "" H 4150 10000 60  0000 C CNN
F 4 "24.000MHz 5mm x 3.2mm oscillator - eg PPS Film capacitor - eg PANASONIC ECPU1C104MA5" H 4400 9450 40  0001 C CNN "Description"
	1    3950 9750
	1    0    0    -1  
$EndComp
Text Label 2550 9750 0    60   ~ 0
IOVDD
$Comp
L C C202
U 1 1 578D3EC2
P 2950 10050
F 0 "C202" H 2950 10150 40  0000 L CNN
F 1 "1u" H 2960 9965 40  0000 L CNN
F 2 "MyKiCadLibs-Footprints:SMD-0603" H 2988 9900 30  0001 C CNN
F 3 "" H 2950 10150 60  0000 C CNN
F 4 "10V" H 2965 9895 40  0000 L CNN "Voltage"
F 5 "X7R" H 2965 9825 40  0000 L CNN "Type"
F 6 "Ceramic capacitor" H 2950 10350 40  0001 L CNN "Description"
F 7 "10%" H 3020 9685 40  0001 C CNN "Tolerance"
F 8 "0603" H 2960 9755 40  0000 L CNN "Size"
	1    2950 10050
	1    0    0    -1  
$EndComp
$Comp
L C C203
U 1 1 578D3ECD
P 3200 10050
F 0 "C203" H 3200 10150 40  0000 L CNN
F 1 "100n" H 3210 9965 40  0000 L CNN
F 2 "MyKiCadLibs-Footprints:SMD-0603" H 3238 9900 30  0001 C CNN
F 3 "" H 3200 10150 60  0000 C CNN
F 4 "50V" H 3215 9895 40  0000 L CNN "Voltage"
F 5 "X7R" H 3215 9825 40  0000 L CNN "Type"
F 6 "Ceramic capacitor" H 3200 10350 40  0001 L CNN "Description"
F 7 "10%" H 3270 9685 40  0001 C CNN "Tolerance"
F 8 "0603" H 3210 9755 40  0000 L CNN "Size"
	1    3200 10050
	1    0    0    -1  
$EndComp
Wire Wire Line
	2550 9750 3950 9750
Wire Wire Line
	3200 9850 3200 9750
Connection ~ 3200 9750
Wire Wire Line
	2950 9850 2950 9750
Connection ~ 2950 9750
$Comp
L GNDD #PWR013
U 1 1 578D4DA5
P 2950 10450
F 0 "#PWR013" H 2950 10200 60  0001 C CNN
F 1 "GNDD" H 2950 10300 60  0000 C CNN
F 2 "" H 2950 10450 60  0000 C CNN
F 3 "" H 2950 10450 60  0000 C CNN
	1    2950 10450
	1    0    0    -1  
$EndComp
Wire Wire Line
	2950 10250 2950 10450
Wire Wire Line
	3200 10400 3200 10250
Connection ~ 2950 10400
Wire Wire Line
	4950 10000 4950 9900
Wire Wire Line
	4950 9900 4900 9900
Wire Wire Line
	4950 9750 4900 9750
$Comp
L R R216
U 1 1 578D95FB
P 6050 10250
F 0 "R216" V 5950 10250 40  0000 C CNN
F 1 "N/F" V 6057 10251 40  0000 C CNN
F 2 "MyKiCadLibs-Footprints:SMD-0805" V 5980 10250 30  0001 C CNN
F 3 "" V 5970 10250 30  0000 C CNN
F 4 "100mW" V 6150 10250 40  0001 C CNN "Power"
F 5 "Thick or thin film resistor" V 6295 10250 40  0001 C CNN "Description"
F 6 "0805" V 6225 10250 40  0001 C CNN "Size"
F 7 "1%" V 6375 10250 40  0001 C CNN "Tolerance"
	1    6050 10250
	0    1    1    0   
$EndComp
$Comp
L CONN_3x1 P201
U 1 1 578D9602
P 5650 10150
F 0 "P201" V 6135 9945 40  0000 C CNN
F 1 "CONN_3x1" V 6080 10060 40  0000 C CNN
F 2 "MyKiCadLibs-Footprints:CONN_SIL_3_1MM" H 5990 10040 60  0001 C CNN
F 3 "" H 5990 10040 60  0000 C CNN
F 4 "1x3 2.54mm pitch pin header" H 5900 9850 40  0001 C CNN "Description"
	1    5650 10150
	-1   0    0    -1  
$EndComp
Connection ~ 5750 10350
Wire Wire Line
	5650 10150 5750 10150
Wire Wire Line
	5750 10350 5650 10350
Wire Wire Line
	5750 10150 5750 10500
Wire Wire Line
	5800 10250 5650 10250
Text Notes 5850 10000 2    59   ~ 0
External Clock
$Comp
L GNDD #PWR014
U 1 1 578D960E
P 5750 10500
F 0 "#PWR014" H 5750 10250 60  0001 C CNN
F 1 "GNDD" H 5750 10350 60  0000 C CNN
F 2 "" H 5750 10500 60  0000 C CNN
F 3 "" H 5750 10500 60  0000 C CNN
	1    5750 10500
	-1   0    0    -1  
$EndComp
Connection ~ 6600 10250
Wire Wire Line
	2950 10400 3200 10400
$Comp
L GNDD #PWR015
U 1 1 578DA744
P 4950 10000
F 0 "#PWR015" H 4950 9750 60  0001 C CNN
F 1 "GNDD" H 4950 9850 60  0000 C CNN
F 2 "" H 4950 10000 60  0000 C CNN
F 3 "" H 4950 10000 60  0000 C CNN
	1    4950 10000
	1    0    0    -1  
$EndComp
$Comp
L R R213
U 1 1 578DAAEC
P 3650 9900
F 0 "R213" V 3550 9900 40  0000 C CNN
F 1 "1k" V 3657 9901 40  0000 C CNN
F 2 "MyKiCadLibs-Footprints:SMD-0805" V 3580 9900 30  0001 C CNN
F 3 "" V 3570 9900 30  0000 C CNN
F 4 "100mW" V 3750 9900 40  0001 C CNN "Power"
F 5 "Thick or thin film resistor" V 3895 9900 40  0001 C CNN "Description"
F 6 "0805" V 3825 9900 40  0001 C CNN "Size"
F 7 "1%" V 3975 9900 40  0001 C CNN "Tolerance"
	1    3650 9900
	0    1    -1   0   
$EndComp
Wire Wire Line
	3900 9900 3950 9900
Wire Wire Line
	3400 9900 3350 9900
Wire Wire Line
	3350 9900 3350 9750
Connection ~ 3350 9750
$Comp
L VPP #PWR016
U 1 1 578DF9CD
P 14950 2550
F 0 "#PWR016" H 14950 2400 60  0001 C CNN
F 1 "VPP" H 14950 2700 60  0000 C CNN
F 2 "" H 14950 2550 60  0000 C CNN
F 3 "" H 14950 2550 60  0000 C CNN
	1    14950 2550
	1    0    0    -1  
$EndComp
Text HLabel 6450 4050 0    60   Input ~ 0
LINP
Text HLabel 6450 4150 0    60   Input ~ 0
LINN
Text HLabel 6450 4300 0    60   Input ~ 0
RINP
Text HLabel 6450 4400 0    60   Input ~ 0
RINN
Text HLabel 6450 4550 0    60   Input ~ 0
LAUX
Text HLabel 6450 4650 0    60   Input ~ 0
RAUX
Wire Wire Line
	6450 4650 6900 4650
Wire Wire Line
	6900 4550 6450 4550
Wire Wire Line
	6450 4400 6900 4400
Wire Wire Line
	6900 4300 6450 4300
Wire Wire Line
	6450 4150 6900 4150
Wire Wire Line
	6900 4050 6450 4050
Text HLabel 9250 4050 2    60   Output ~ 0
LOUTN
Text HLabel 9250 4150 2    60   Output ~ 0
LOUTP
Text HLabel 9250 4300 2    60   Output ~ 0
ROUTN
Text HLabel 9250 4400 2    60   Output ~ 0
ROUTP
Text HLabel 9250 4550 2    60   Output ~ 0
RHP
Text HLabel 9250 4650 2    60   Output ~ 0
LHP
Wire Wire Line
	9250 4650 8900 4650
Wire Wire Line
	8900 4550 9250 4550
Wire Wire Line
	9250 4400 8900 4400
Wire Wire Line
	8900 4300 9250 4300
Wire Wire Line
	9250 4150 8900 4150
Wire Wire Line
	8900 4050 9250 4050
Text Label 6350 5150 0    60   ~ 0
MCLK_ADAU
Wire Wire Line
	6350 5150 6900 5150
$Comp
L GNDD #PWR017
U 1 1 5792625D
P 12100 3750
F 0 "#PWR017" H 12100 3500 60  0001 C CNN
F 1 "GNDD" H 12100 3600 60  0000 C CNN
F 2 "" H 12100 3750 60  0000 C CNN
F 3 "" H 12100 3750 60  0000 C CNN
	1    12100 3750
	1    0    0    -1  
$EndComp
Wire Wire Line
	12100 3650 12100 3750
Wire Wire Line
	12100 2625 13050 2625
Wire Wire Line
	12100 2625 12100 2750
Connection ~ 12550 2625
Wire Wire Line
	12100 3700 13050 3700
Connection ~ 12100 3700
Connection ~ 12550 3700
Text Label 12100 2625 0    60   ~ 0
IOVDD
Connection ~ 12800 2625
Connection ~ 12800 3700
$Comp
L IC-LOGIC-BUF-NC7WZ17P6X U203
U 1 1 5792626E
P 12100 3200
F 0 "U203" V 11800 3000 60  0000 C CNN
F 1 "NC7WZ17P6X" V 11900 3225 60  0000 C CNN
F 2 "MyKiCadLibs-Footprints:IC-SC70-6" H 12200 3200 60  0001 C CNN
F 3 "" H 12200 3200 60  0000 C CNN
F 4 "UHS Dual Buffer with Schmitt Trigger Inputs" V 12100 3200 60  0001 C CNN "Description"
	1    12100 3200
	1    0    0    -1  
$EndComp
Wire Wire Line
	13050 3700 13050 3400
Wire Wire Line
	13050 2625 13050 3000
Wire Wire Line
	12800 3700 12800 3400
Wire Wire Line
	12550 3400 12550 3700
Wire Wire Line
	12550 3000 12550 2625
Wire Wire Line
	12800 2625 12800 3000
$Comp
L C C223
U 1 1 5792627F
P 12550 3200
F 0 "C223" H 12550 3300 40  0000 L CNN
F 1 "1u" H 12560 3115 40  0000 L CNN
F 2 "MyKiCadLibs-Footprints:SMD-0603" H 12588 3050 30  0001 C CNN
F 3 "" H 12550 3300 60  0000 C CNN
F 4 "10V" H 12565 3045 40  0000 L CNN "Voltage"
F 5 "X7R" H 12565 2975 40  0000 L CNN "Type"
F 6 "Ceramic capacitor" H 12550 3500 40  0001 L CNN "Description"
F 7 "10%" H 12620 2835 40  0001 C CNN "Tolerance"
F 8 "0603" H 12560 2905 40  0000 L CNN "Size"
	1    12550 3200
	1    0    0    -1  
$EndComp
$Comp
L C C224
U 1 1 5792628A
P 12800 3200
F 0 "C224" H 12800 3300 40  0000 L CNN
F 1 "100n" H 12810 3115 40  0000 L CNN
F 2 "MyKiCadLibs-Footprints:SMD-0603" H 12838 3050 30  0001 C CNN
F 3 "" H 12800 3300 60  0000 C CNN
F 4 "50V" H 12815 3045 40  0000 L CNN "Voltage"
F 5 "X7R" H 12815 2975 40  0000 L CNN "Type"
F 6 "Ceramic capacitor" H 12800 3500 40  0001 L CNN "Description"
F 7 "10%" H 12870 2835 40  0001 C CNN "Tolerance"
F 8 "0603" H 12810 2905 40  0000 L CNN "Size"
	1    12800 3200
	1    0    0    -1  
$EndComp
$Comp
L C C225
U 1 1 57926295
P 13050 3200
F 0 "C225" H 13050 3300 40  0000 L CNN
F 1 "10n" H 13060 3115 40  0000 L CNN
F 2 "MyKiCadLibs-Footprints:SMD-0603" H 13088 3050 30  0001 C CNN
F 3 "" H 13050 3300 60  0000 C CNN
F 4 "50V" H 13065 3045 40  0000 L CNN "Voltage"
F 5 "X7R" H 13065 2975 40  0000 L CNN "Type"
F 6 "Ceramic capacitor" H 13050 3500 40  0001 L CNN "Description"
F 7 "10%" H 13120 2835 40  0001 C CNN "Tolerance"
F 8 "0603" H 13060 2905 40  0000 L CNN "Size"
	1    13050 3200
	1    0    0    -1  
$EndComp
$Comp
L GNDD #PWR018
U 1 1 5792635C
P 13650 3750
F 0 "#PWR018" H 13650 3500 60  0001 C CNN
F 1 "GNDD" H 13650 3600 60  0000 C CNN
F 2 "" H 13650 3750 60  0000 C CNN
F 3 "" H 13650 3750 60  0000 C CNN
	1    13650 3750
	1    0    0    -1  
$EndComp
Wire Wire Line
	13650 3650 13650 3750
Wire Wire Line
	13650 2625 14600 2625
Wire Wire Line
	13650 2625 13650 2750
Connection ~ 14100 2625
Wire Wire Line
	13650 3700 14600 3700
Connection ~ 13650 3700
Connection ~ 14100 3700
Text Label 13650 2625 0    60   ~ 0
IOVDD
Connection ~ 14350 2625
Connection ~ 14350 3700
$Comp
L IC-LOGIC-BUF-NC7WZ17P6X U204
U 1 1 5792636D
P 13650 3200
F 0 "U204" V 13350 3000 60  0000 C CNN
F 1 "NC7WZ17P6X" V 13450 3225 60  0000 C CNN
F 2 "MyKiCadLibs-Footprints:IC-SC70-6" H 13750 3200 60  0001 C CNN
F 3 "" H 13750 3200 60  0000 C CNN
F 4 "UHS Dual Buffer with Schmitt Trigger Inputs" V 13650 3200 60  0001 C CNN "Description"
	1    13650 3200
	1    0    0    -1  
$EndComp
Wire Wire Line
	14600 3700 14600 3400
Wire Wire Line
	14600 2625 14600 3000
Wire Wire Line
	14350 3700 14350 3400
Wire Wire Line
	14100 3400 14100 3700
Wire Wire Line
	14100 3000 14100 2625
Wire Wire Line
	14350 2625 14350 3000
$Comp
L C C226
U 1 1 5792637E
P 14100 3200
F 0 "C226" H 14100 3300 40  0000 L CNN
F 1 "1u" H 14110 3115 40  0000 L CNN
F 2 "MyKiCadLibs-Footprints:SMD-0603" H 14138 3050 30  0001 C CNN
F 3 "" H 14100 3300 60  0000 C CNN
F 4 "10V" H 14115 3045 40  0000 L CNN "Voltage"
F 5 "X7R" H 14115 2975 40  0000 L CNN "Type"
F 6 "Ceramic capacitor" H 14100 3500 40  0001 L CNN "Description"
F 7 "10%" H 14170 2835 40  0001 C CNN "Tolerance"
F 8 "0603" H 14110 2905 40  0000 L CNN "Size"
	1    14100 3200
	1    0    0    -1  
$EndComp
$Comp
L C C227
U 1 1 57926389
P 14350 3200
F 0 "C227" H 14350 3300 40  0000 L CNN
F 1 "100n" H 14360 3115 40  0000 L CNN
F 2 "MyKiCadLibs-Footprints:SMD-0603" H 14388 3050 30  0001 C CNN
F 3 "" H 14350 3300 60  0000 C CNN
F 4 "50V" H 14365 3045 40  0000 L CNN "Voltage"
F 5 "X7R" H 14365 2975 40  0000 L CNN "Type"
F 6 "Ceramic capacitor" H 14350 3500 40  0001 L CNN "Description"
F 7 "10%" H 14420 2835 40  0001 C CNN "Tolerance"
F 8 "0603" H 14360 2905 40  0000 L CNN "Size"
	1    14350 3200
	1    0    0    -1  
$EndComp
$Comp
L C C228
U 1 1 57926394
P 14600 3200
F 0 "C228" H 14600 3300 40  0000 L CNN
F 1 "10n" H 14610 3115 40  0000 L CNN
F 2 "MyKiCadLibs-Footprints:SMD-0603" H 14638 3050 30  0001 C CNN
F 3 "" H 14600 3300 60  0000 C CNN
F 4 "50V" H 14615 3045 40  0000 L CNN "Voltage"
F 5 "X7R" H 14615 2975 40  0000 L CNN "Type"
F 6 "Ceramic capacitor" H 14600 3500 40  0001 L CNN "Description"
F 7 "10%" H 14670 2835 40  0001 C CNN "Tolerance"
F 8 "0603" H 14610 2905 40  0000 L CNN "Size"
	1    14600 3200
	1    0    0    -1  
$EndComp
$Comp
L IC-LOGIC-BUF-NC7WZ17P6X U203
U 3 1 57926DA6
P 11300 5750
F 0 "U203" H 11300 6050 60  0000 C CNN
F 1 "NC7WZ17P6X" H 11300 5950 60  0000 C CNN
F 2 "MyKiCadLibs-Footprints:IC-SC70-6" H 11400 5750 60  0001 C CNN
F 3 "" H 11400 5750 60  0000 C CNN
F 4 "UHS Dual Buffer with Schmitt Trigger Inputs" H 11300 5750 60  0001 C CNN "Description"
	3    11300 5750
	1    0    0    -1  
$EndComp
$Comp
L IC-LOGIC-BUF-NC7WZ17P6X U203
U 2 1 57926DAD
P 11300 5250
F 0 "U203" H 11300 5550 60  0000 C CNN
F 1 "NC7WZ17P6X" H 11300 5450 60  0000 C CNN
F 2 "MyKiCadLibs-Footprints:IC-SC70-6" H 11400 5250 60  0001 C CNN
F 3 "" H 11400 5250 60  0000 C CNN
F 4 "UHS Dual Buffer with Schmitt Trigger Inputs" H 11300 5250 60  0001 C CNN "Description"
	2    11300 5250
	1    0    0    -1  
$EndComp
$Comp
L IC-LOGIC-BUF-NC7WZ17P6X U204
U 3 1 579277CC
P 11300 6750
F 0 "U204" H 11300 7050 60  0000 C CNN
F 1 "NC7WZ17P6X" H 11300 6950 60  0000 C CNN
F 2 "MyKiCadLibs-Footprints:IC-SC70-6" H 11400 6750 60  0001 C CNN
F 3 "" H 11400 6750 60  0000 C CNN
F 4 "UHS Dual Buffer with Schmitt Trigger Inputs" H 11300 6750 60  0001 C CNN "Description"
	3    11300 6750
	1    0    0    -1  
$EndComp
$Comp
L IC-LOGIC-BUF-NC7WZ17P6X U204
U 2 1 579277D3
P 11300 6250
F 0 "U204" H 11300 6550 60  0000 C CNN
F 1 "NC7WZ17P6X" H 11300 6450 60  0000 C CNN
F 2 "MyKiCadLibs-Footprints:IC-SC70-6" H 11400 6250 60  0001 C CNN
F 3 "" H 11400 6250 60  0000 C CNN
F 4 "UHS Dual Buffer with Schmitt Trigger Inputs" H 11300 6250 60  0001 C CNN "Description"
	2    11300 6250
	1    0    0    -1  
$EndComp
Wire Wire Line
	10950 5250 10950 5750
Wire Wire Line
	10850 5350 10850 6750
Wire Wire Line
	10950 5750 11050 5750
Connection ~ 10950 5250
Wire Wire Line
	10850 6250 11050 6250
Wire Wire Line
	10850 6750 11050 6750
Connection ~ 10850 6250
Wire Wire Line
	9650 5050 9550 5050
Wire Wire Line
	9550 5150 9650 5150
Text HLabel 12300 5250 2    60   Output ~ 0
BCLK1
$Comp
L R R224
U 1 1 5792B009
P 11950 5250
F 0 "R224" V 11850 5250 40  0000 C CNN
F 1 "75" V 11957 5251 40  0000 C CNN
F 2 "MyKiCadLibs-Footprints:SMD-0805" V 11880 5250 30  0001 C CNN
F 3 "" V 11870 5250 30  0000 C CNN
F 4 "100mW" V 12050 5250 40  0001 C CNN "Power"
F 5 "Thick or thin film resistor" V 12195 5250 40  0001 C CNN "Description"
F 6 "0805" V 12125 5250 40  0001 C CNN "Size"
F 7 "1%" V 12275 5250 40  0001 C CNN "Tolerance"
	1    11950 5250
	0    1    -1   0   
$EndComp
Wire Wire Line
	12300 5250 12200 5250
Wire Wire Line
	11700 5250 11600 5250
Text HLabel 12300 5750 2    60   Output ~ 0
BCLK2
$Comp
L R R225
U 1 1 5792C1D8
P 11950 5750
F 0 "R225" V 11850 5750 40  0000 C CNN
F 1 "75" V 11957 5751 40  0000 C CNN
F 2 "MyKiCadLibs-Footprints:SMD-0805" V 11880 5750 30  0001 C CNN
F 3 "" V 11870 5750 30  0000 C CNN
F 4 "100mW" V 12050 5750 40  0001 C CNN "Power"
F 5 "Thick or thin film resistor" V 12195 5750 40  0001 C CNN "Description"
F 6 "0805" V 12125 5750 40  0001 C CNN "Size"
F 7 "1%" V 12275 5750 40  0001 C CNN "Tolerance"
	1    11950 5750
	0    1    -1   0   
$EndComp
Wire Wire Line
	12300 5750 12200 5750
Wire Wire Line
	11700 5750 11600 5750
Text HLabel 12300 6250 2    60   Output ~ 0
LRCLK1
$Comp
L R R226
U 1 1 5792C358
P 11950 6250
F 0 "R226" V 11850 6250 40  0000 C CNN
F 1 "75" V 11957 6251 40  0000 C CNN
F 2 "MyKiCadLibs-Footprints:SMD-0805" V 11880 6250 30  0001 C CNN
F 3 "" V 11870 6250 30  0000 C CNN
F 4 "100mW" V 12050 6250 40  0001 C CNN "Power"
F 5 "Thick or thin film resistor" V 12195 6250 40  0001 C CNN "Description"
F 6 "0805" V 12125 6250 40  0001 C CNN "Size"
F 7 "1%" V 12275 6250 40  0001 C CNN "Tolerance"
	1    11950 6250
	0    1    -1   0   
$EndComp
Wire Wire Line
	12300 6250 12200 6250
Wire Wire Line
	11700 6250 11600 6250
Text HLabel 12300 6750 2    60   Output ~ 0
LRCLK2
$Comp
L R R227
U 1 1 5792C365
P 11950 6750
F 0 "R227" V 11850 6750 40  0000 C CNN
F 1 "75" V 11957 6751 40  0000 C CNN
F 2 "MyKiCadLibs-Footprints:SMD-0805" V 11880 6750 30  0001 C CNN
F 3 "" V 11870 6750 30  0000 C CNN
F 4 "100mW" V 12050 6750 40  0001 C CNN "Power"
F 5 "Thick or thin film resistor" V 12195 6750 40  0001 C CNN "Description"
F 6 "0805" V 12125 6750 40  0001 C CNN "Size"
F 7 "1%" V 12275 6750 40  0001 C CNN "Tolerance"
	1    11950 6750
	0    1    -1   0   
$EndComp
Wire Wire Line
	12300 6750 12200 6750
Wire Wire Line
	11700 6750 11600 6750
Text HLabel 9250 4800 2    60   Output ~ 0
MONOOUT
Wire Wire Line
	9250 4800 8900 4800
Connection ~ 7200 1050
Wire Wire Line
	5550 1050 7500 1050
Connection ~ 6950 1050
Wire Wire Line
	5650 2150 7500 2150
$Comp
L C C210
U 1 1 5710CEBA
P 7500 1650
F 0 "C210" H 7500 1750 40  0000 L CNN
F 1 "10n" H 7510 1565 40  0000 L CNN
F 2 "MyKiCadLibs-Footprints:SMD-0603" H 7538 1500 30  0001 C CNN
F 3 "" H 7500 1750 60  0000 C CNN
F 4 "10V" H 7515 1495 40  0000 L CNN "Voltage"
F 5 "X7R" H 7515 1425 40  0000 L CNN "Type"
F 6 "Ceramic capacitor" H 7500 1950 40  0001 L CNN "Description"
F 7 "10%" H 7570 1285 40  0001 C CNN "Tolerance"
F 8 "0603" H 7510 1355 40  0000 L CNN "Size"
	1    7500 1650
	1    0    0    -1  
$EndComp
$Comp
L C C209
U 1 1 5710BAD4
P 7200 1650
F 0 "C209" H 7200 1750 40  0000 L CNN
F 1 "100n" H 7210 1565 40  0000 L CNN
F 2 "MyKiCadLibs-Footprints:SMD-0603" H 7238 1500 30  0001 C CNN
F 3 "" H 7200 1750 60  0000 C CNN
F 4 "50V" H 7215 1495 40  0000 L CNN "Voltage"
F 5 "X7R" H 7215 1425 40  0000 L CNN "Type"
F 6 "Ceramic capacitor" H 7200 1950 40  0001 L CNN "Description"
F 7 "10%" H 7270 1285 40  0001 C CNN "Tolerance"
F 8 "0603" H 7210 1355 40  0000 L CNN "Size"
	1    7200 1650
	1    0    0    -1  
$EndComp
$Comp
L C C208
U 1 1 5710BAC9
P 6950 1650
F 0 "C208" H 6950 1750 40  0000 L CNN
F 1 "1u" H 6960 1565 40  0000 L CNN
F 2 "MyKiCadLibs-Footprints:SMD-0603" H 6988 1500 30  0001 C CNN
F 3 "" H 6950 1750 60  0000 C CNN
F 4 "10V" H 6965 1495 40  0000 L CNN "Voltage"
F 5 "X7R" H 6965 1425 40  0000 L CNN "Type"
F 6 "Ceramic capacitor" H 6950 1950 40  0001 L CNN "Description"
F 7 "10%" H 7020 1285 40  0001 C CNN "Tolerance"
F 8 "0603" H 6960 1355 40  0000 L CNN "Size"
	1    6950 1650
	1    0    0    -1  
$EndComp
Wire Wire Line
	6950 2150 6950 1850
Wire Wire Line
	7200 2150 7200 1850
Connection ~ 6950 2150
Connection ~ 7200 2150
Wire Wire Line
	6950 1050 6950 1450
Wire Wire Line
	7200 1050 7200 1450
Wire Wire Line
	7500 2150 7500 1850
Wire Wire Line
	7500 1050 7500 1450
$EndSCHEMATC
